0.000102006092391,0.000144469506066,0.000360791792418,0.00192193819949,0.00472945777533,0.0141961505348,0.0153509058253,0.0614453680612,0.420585375543,4.18524641588,9.5051741933
2.84840800359e-05,2.73615950164e-05,3.31033210751e-05,3.76400388129e-05,2.73630610861e-05,3.69011352947e-05,2.89257917556e-05,1.07113442037e-05,2.19175596096e-05,1.24823005636e-05,3.45654226679e-05
0.000130736015178,3.41550211676e-05,4.10092578968e-05,7.55884325667e-05,0.000204930031709,0.000164205159887,0.000125170820837,1.36878840078e-05,0.000132536390709,3.44933868857e-05,0.000323176123608
1.07713343301e-05,2.3778077825e-05,4.57873993299e-05,4.03819719127e-05,2.60458396027e-05,4.58084110269e-05,9.94667382646e-06,8.43042970435e-06,1.89133218418e-05,8.86516238374e-06,2.64137700331e-05
0.0001111297429,7.4558583874e-05,8.35439427069e-05,8.41116859116e-05,0.000211137217322,0.000190309075857,1.84981118615e-05,2.29706057528e-05,0.000125711843709,2.49553919032e-05,0.000316439318613
