>>>>



CNF-SAT-VC: 0,1,2
APPROX-VC-1: 0,1,4
REFINED-APPROX-VC-1: 0,1,4
APPROX-VC-2: 0,1,2,3
REFINED-APPROX-VC-2: 0,1,2
CNF-SAT-VC-Time1: 0.000616245
APPROX-VC-1-Time2: 0.000128528
REFINED-APPROX-VC-1-Time3: 0.000525723
APPROX-VC-2-Time4: 0.000032281
REFINED-APPROX-VC-2-Time5: 0.000444316

5 - 0
['CNF-SAT-VC: 0,1,2', 'APPROX-VC-1: 0,1,4', 'REFINED-APPROX-VC-1: 0,1,4', 'APPROX-VC-2: 0,1,2,3', 'REFINED-APPROX-VC-2: 0,1,2', 'CNF-SAT-VC-Time1: 0.000616245', 'APPROX-VC-1-Time2: 0.000128528', 'REFINED-APPROX-VC-1-Time3: 0.000525723', 'APPROX-VC-2-Time4: 0.000032281', 'REFINED-APPROX-VC-2-Time5: 0.000444316']
[['CNF-SAT-VC:', '0,1,2'], ['APPROX-VC-1:', '0,1,4'], ['REFINED-APPROX-VC-1:', '0,1,4'], ['APPROX-VC-2:', '0,1,2,3'], ['REFINED-APPROX-VC-2:', '0,1,2'], ['CNF-SAT-VC-Time1:', '0.000616245'], ['APPROX-VC-1-Time2:', '0.000128528'], ['REFINED-APPROX-VC-1-Time3:', '0.000525723'], ['APPROX-VC-2-Time4:', '0.000032281'], ['REFINED-APPROX-VC-2-Time5:', '0.000444316']]

>>>>


CNF-SAT-VC: 0,1
APPROX-VC-1: 0,1
REFINED-APPROX-VC-1: 0,1
APPROX-VC-2: 0,1,2,4
REFINED-APPROX-VC-2: 0,1
CNF-SAT-VC-Time1: 0.000290767
APPROX-VC-1-Time2: 0.000030628
REFINED-APPROX-VC-1-Time3: 0.000413015
APPROX-VC-2-Time4: 0.000032184
REFINED-APPROX-VC-2-Time5: 0.000505882

5 - 1
['CNF-SAT-VC: 0,1', 'APPROX-VC-1: 0,1', 'REFINED-APPROX-VC-1: 0,1', 'APPROX-VC-2: 0,1,2,4', 'REFINED-APPROX-VC-2: 0,1', 'CNF-SAT-VC-Time1: 0.000290767', 'APPROX-VC-1-Time2: 0.000030628', 'REFINED-APPROX-VC-1-Time3: 0.000413015', 'APPROX-VC-2-Time4: 0.000032184', 'REFINED-APPROX-VC-2-Time5: 0.000505882']
[['CNF-SAT-VC:', '0,1'], ['APPROX-VC-1:', '0,1'], ['REFINED-APPROX-VC-1:', '0,1'], ['APPROX-VC-2:', '0,1,2,4'], ['REFINED-APPROX-VC-2:', '0,1'], ['CNF-SAT-VC-Time1:', '0.000290767'], ['APPROX-VC-1-Time2:', '0.000030628'], ['REFINED-APPROX-VC-1-Time3:', '0.000413015'], ['APPROX-VC-2-Time4:', '0.000032184'], ['REFINED-APPROX-VC-2-Time5:', '0.000505882']]

>>>>



CNF-SAT-VC: 0,1,2
APPROX-VC-1: 0,1,2
REFINED-APPROX-VC-1: 0,1,2
APPROX-VC-2: 1,2,3,4
REFINED-APPROX-VC-2: 1,3,4
CNF-SAT-VC-Time1: 0.000569098
APPROX-VC-1-Time2: 0.000084491
REFINED-APPROX-VC-1-Time3: 0.000683158
APPROX-VC-2-Time4: 0.000023099
REFINED-APPROX-VC-2-Time5: 0.000544179

5 - 2
['CNF-SAT-VC: 0,1,2', 'APPROX-VC-1: 0,1,2', 'REFINED-APPROX-VC-1: 0,1,2', 'APPROX-VC-2: 1,2,3,4', 'REFINED-APPROX-VC-2: 1,3,4', 'CNF-SAT-VC-Time1: 0.000569098', 'APPROX-VC-1-Time2: 0.000084491', 'REFINED-APPROX-VC-1-Time3: 0.000683158', 'APPROX-VC-2-Time4: 0.000023099', 'REFINED-APPROX-VC-2-Time5: 0.000544179']
[['CNF-SAT-VC:', '0,1,2'], ['APPROX-VC-1:', '0,1,2'], ['REFINED-APPROX-VC-1:', '0,1,2'], ['APPROX-VC-2:', '1,2,3,4'], ['REFINED-APPROX-VC-2:', '1,3,4'], ['CNF-SAT-VC-Time1:', '0.000569098'], ['APPROX-VC-1-Time2:', '0.000084491'], ['REFINED-APPROX-VC-1-Time3:', '0.000683158'], ['APPROX-VC-2-Time4:', '0.000023099'], ['REFINED-APPROX-VC-2-Time5:', '0.000544179']]

>>>>


CNF-SAT-VC: 0,2
APPROX-VC-1: 0,2
REFINED-APPROX-VC-1: 0,2
APPROX-VC-2: 0,2
REFINED-APPROX-VC-2: 0,2
CNF-SAT-VC-Time1: 0.000282062
APPROX-VC-1-Time2: 0.000020829
REFINED-APPROX-VC-1-Time3: 0.000558492
APPROX-VC-2-Time4: 0.000070849
REFINED-APPROX-VC-2-Time5: 0.000483985

5 - 3
['CNF-SAT-VC: 0,2', 'APPROX-VC-1: 0,2', 'REFINED-APPROX-VC-1: 0,2', 'APPROX-VC-2: 0,2', 'REFINED-APPROX-VC-2: 0,2', 'CNF-SAT-VC-Time1: 0.000282062', 'APPROX-VC-1-Time2: 0.000020829', 'REFINED-APPROX-VC-1-Time3: 0.000558492', 'APPROX-VC-2-Time4: 0.000070849', 'REFINED-APPROX-VC-2-Time5: 0.000483985']
[['CNF-SAT-VC:', '0,2'], ['APPROX-VC-1:', '0,2'], ['REFINED-APPROX-VC-1:', '0,2'], ['APPROX-VC-2:', '0,2'], ['REFINED-APPROX-VC-2:', '0,2'], ['CNF-SAT-VC-Time1:', '0.000282062'], ['APPROX-VC-1-Time2:', '0.000020829'], ['REFINED-APPROX-VC-1-Time3:', '0.000558492'], ['APPROX-VC-2-Time4:', '0.000070849'], ['REFINED-APPROX-VC-2-Time5:', '0.000483985']]

>>>>


CNF-SAT-VC: 0,1
APPROX-VC-1: 0,1
REFINED-APPROX-VC-1: 0,1
APPROX-VC-2: 0,1,2,4
REFINED-APPROX-VC-2: 0,1
CNF-SAT-VC-Time1: 0.000368789
APPROX-VC-1-Time2: 0.000080429
REFINED-APPROX-VC-1-Time3: 0.000437632
APPROX-VC-2-Time4: 0.000065591
REFINED-APPROX-VC-2-Time5: 0.000491637

5 - 4
['CNF-SAT-VC: 0,1', 'APPROX-VC-1: 0,1', 'REFINED-APPROX-VC-1: 0,1', 'APPROX-VC-2: 0,1,2,4', 'REFINED-APPROX-VC-2: 0,1', 'CNF-SAT-VC-Time1: 0.000368789', 'APPROX-VC-1-Time2: 0.000080429', 'REFINED-APPROX-VC-1-Time3: 0.000437632', 'APPROX-VC-2-Time4: 0.000065591', 'REFINED-APPROX-VC-2-Time5: 0.000491637']
[['CNF-SAT-VC:', '0,1'], ['APPROX-VC-1:', '0,1'], ['REFINED-APPROX-VC-1:', '0,1'], ['APPROX-VC-2:', '0,1,2,4'], ['REFINED-APPROX-VC-2:', '0,1'], ['CNF-SAT-VC-Time1:', '0.000368789'], ['APPROX-VC-1-Time2:', '0.000080429'], ['REFINED-APPROX-VC-1-Time3:', '0.000437632'], ['APPROX-VC-2-Time4:', '0.000065591'], ['REFINED-APPROX-VC-2-Time5:', '0.000491637']]

>>>>


CNF-SAT-VC: 2,4
APPROX-VC-1: 2,4
REFINED-APPROX-VC-1: 2,4
APPROX-VC-2: 1,2,3,4
REFINED-APPROX-VC-2: 2,4
CNF-SAT-VC-Time1: 0.000471922
APPROX-VC-1-Time2: 0.000072499
REFINED-APPROX-VC-1-Time3: 0.000517906
APPROX-VC-2-Time4: 0.000092458
REFINED-APPROX-VC-2-Time5: 0.000447115

5 - 5
['CNF-SAT-VC: 2,4', 'APPROX-VC-1: 2,4', 'REFINED-APPROX-VC-1: 2,4', 'APPROX-VC-2: 1,2,3,4', 'REFINED-APPROX-VC-2: 2,4', 'CNF-SAT-VC-Time1: 0.000471922', 'APPROX-VC-1-Time2: 0.000072499', 'REFINED-APPROX-VC-1-Time3: 0.000517906', 'APPROX-VC-2-Time4: 0.000092458', 'REFINED-APPROX-VC-2-Time5: 0.000447115']
[['CNF-SAT-VC:', '2,4'], ['APPROX-VC-1:', '2,4'], ['REFINED-APPROX-VC-1:', '2,4'], ['APPROX-VC-2:', '1,2,3,4'], ['REFINED-APPROX-VC-2:', '2,4'], ['CNF-SAT-VC-Time1:', '0.000471922'], ['APPROX-VC-1-Time2:', '0.000072499'], ['REFINED-APPROX-VC-1-Time3:', '0.000517906'], ['APPROX-VC-2-Time4:', '0.000092458'], ['REFINED-APPROX-VC-2-Time5:', '0.000447115']]

>>>>


CNF-SAT-VC: 0,2
APPROX-VC-1: 0,2
REFINED-APPROX-VC-1: 0,2
APPROX-VC-2: 0,2,3,4
REFINED-APPROX-VC-2: 0,2
CNF-SAT-VC-Time1: 0.000284303
APPROX-VC-1-Time2: 0.000020313
REFINED-APPROX-VC-1-Time3: 0.000553434
APPROX-VC-2-Time4: 0.000074152
REFINED-APPROX-VC-2-Time5: 0.000532682

5 - 6
['CNF-SAT-VC: 0,2', 'APPROX-VC-1: 0,2', 'REFINED-APPROX-VC-1: 0,2', 'APPROX-VC-2: 0,2,3,4', 'REFINED-APPROX-VC-2: 0,2', 'CNF-SAT-VC-Time1: 0.000284303', 'APPROX-VC-1-Time2: 0.000020313', 'REFINED-APPROX-VC-1-Time3: 0.000553434', 'APPROX-VC-2-Time4: 0.000074152', 'REFINED-APPROX-VC-2-Time5: 0.000532682']
[['CNF-SAT-VC:', '0,2'], ['APPROX-VC-1:', '0,2'], ['REFINED-APPROX-VC-1:', '0,2'], ['APPROX-VC-2:', '0,2,3,4'], ['REFINED-APPROX-VC-2:', '0,2'], ['CNF-SAT-VC-Time1:', '0.000284303'], ['APPROX-VC-1-Time2:', '0.000020313'], ['REFINED-APPROX-VC-1-Time3:', '0.000553434'], ['APPROX-VC-2-Time4:', '0.000074152'], ['REFINED-APPROX-VC-2-Time5:', '0.000532682']]

>>>>



CNF-SAT-VC: 0,1,2
APPROX-VC-1: 0,1,2
REFINED-APPROX-VC-1: 0,1,2
APPROX-VC-2: 0,1,2,3
REFINED-APPROX-VC-2: 0,1,2
CNF-SAT-VC-Time1: 0.000539992
APPROX-VC-1-Time2: 0.000076869
REFINED-APPROX-VC-1-Time3: 0.000555700
APPROX-VC-2-Time4: 0.000059781
REFINED-APPROX-VC-2-Time5: 0.000635594

5 - 7
['CNF-SAT-VC: 0,1,2', 'APPROX-VC-1: 0,1,2', 'REFINED-APPROX-VC-1: 0,1,2', 'APPROX-VC-2: 0,1,2,3', 'REFINED-APPROX-VC-2: 0,1,2', 'CNF-SAT-VC-Time1: 0.000539992', 'APPROX-VC-1-Time2: 0.000076869', 'REFINED-APPROX-VC-1-Time3: 0.000555700', 'APPROX-VC-2-Time4: 0.000059781', 'REFINED-APPROX-VC-2-Time5: 0.000635594']
[['CNF-SAT-VC:', '0,1,2'], ['APPROX-VC-1:', '0,1,2'], ['REFINED-APPROX-VC-1:', '0,1,2'], ['APPROX-VC-2:', '0,1,2,3'], ['REFINED-APPROX-VC-2:', '0,1,2'], ['CNF-SAT-VC-Time1:', '0.000539992'], ['APPROX-VC-1-Time2:', '0.000076869'], ['REFINED-APPROX-VC-1-Time3:', '0.000555700'], ['APPROX-VC-2-Time4:', '0.000059781'], ['REFINED-APPROX-VC-2-Time5:', '0.000635594']]

>>>>


CNF-SAT-VC: 0,3
APPROX-VC-1: 0,3
REFINED-APPROX-VC-1: 0,3
APPROX-VC-2: 0,3
REFINED-APPROX-VC-2: 0,3
CNF-SAT-VC-Time1: 0.000360592
APPROX-VC-1-Time2: 0.000100049
REFINED-APPROX-VC-1-Time3: 0.000453156
APPROX-VC-2-Time4: 0.000011025
REFINED-APPROX-VC-2-Time5: 0.000402747

5 - 8
['CNF-SAT-VC: 0,3', 'APPROX-VC-1: 0,3', 'REFINED-APPROX-VC-1: 0,3', 'APPROX-VC-2: 0,3', 'REFINED-APPROX-VC-2: 0,3', 'CNF-SAT-VC-Time1: 0.000360592', 'APPROX-VC-1-Time2: 0.000100049', 'REFINED-APPROX-VC-1-Time3: 0.000453156', 'APPROX-VC-2-Time4: 0.000011025', 'REFINED-APPROX-VC-2-Time5: 0.000402747']
[['CNF-SAT-VC:', '0,3'], ['APPROX-VC-1:', '0,3'], ['REFINED-APPROX-VC-1:', '0,3'], ['APPROX-VC-2:', '0,3'], ['REFINED-APPROX-VC-2:', '0,3'], ['CNF-SAT-VC-Time1:', '0.000360592'], ['APPROX-VC-1-Time2:', '0.000100049'], ['REFINED-APPROX-VC-1-Time3:', '0.000453156'], ['APPROX-VC-2-Time4:', '0.000011025'], ['REFINED-APPROX-VC-2-Time5:', '0.000402747']]

>>>>



CNF-SAT-VC: 0,1,2
APPROX-VC-1: 0,1,2
REFINED-APPROX-VC-1: 0,1,2
APPROX-VC-2: 0,1,2,4
REFINED-APPROX-VC-2: 0,1,2
CNF-SAT-VC-Time1: 0.000698086
APPROX-VC-1-Time2: 0.000069389
REFINED-APPROX-VC-1-Time3: 0.000478153
APPROX-VC-2-Time4: 0.000027932
REFINED-APPROX-VC-2-Time5: 0.000450902

5 - 9
['CNF-SAT-VC: 0,1,2', 'APPROX-VC-1: 0,1,2', 'REFINED-APPROX-VC-1: 0,1,2', 'APPROX-VC-2: 0,1,2,4', 'REFINED-APPROX-VC-2: 0,1,2', 'CNF-SAT-VC-Time1: 0.000698086', 'APPROX-VC-1-Time2: 0.000069389', 'REFINED-APPROX-VC-1-Time3: 0.000478153', 'APPROX-VC-2-Time4: 0.000027932', 'REFINED-APPROX-VC-2-Time5: 0.000450902']
[['CNF-SAT-VC:', '0,1,2'], ['APPROX-VC-1:', '0,1,2'], ['REFINED-APPROX-VC-1:', '0,1,2'], ['APPROX-VC-2:', '0,1,2,4'], ['REFINED-APPROX-VC-2:', '0,1,2'], ['CNF-SAT-VC-Time1:', '0.000698086'], ['APPROX-VC-1-Time2:', '0.000069389'], ['REFINED-APPROX-VC-1-Time3:', '0.000478153'], ['APPROX-VC-2-Time4:', '0.000027932'], ['REFINED-APPROX-VC-2-Time5:', '0.000450902']]

>>>>



CNF-SAT-VC: 0,1,2
APPROX-VC-1: 0,1,2
REFINED-APPROX-VC-1: 0,1,2
APPROX-VC-2: 0,1,2,4
REFINED-APPROX-VC-2: 0,1,2
CNF-SAT-VC-Time1: 0.000573415
APPROX-VC-1-Time2: 0.000032633
REFINED-APPROX-VC-1-Time3: 0.000460434
APPROX-VC-2-Time4: 0.000033687
REFINED-APPROX-VC-2-Time5: 0.000499451

6 - 0
['CNF-SAT-VC: 0,1,2', 'APPROX-VC-1: 0,1,2', 'REFINED-APPROX-VC-1: 0,1,2', 'APPROX-VC-2: 0,1,2,4', 'REFINED-APPROX-VC-2: 0,1,2', 'CNF-SAT-VC-Time1: 0.000573415', 'APPROX-VC-1-Time2: 0.000032633', 'REFINED-APPROX-VC-1-Time3: 0.000460434', 'APPROX-VC-2-Time4: 0.000033687', 'REFINED-APPROX-VC-2-Time5: 0.000499451']
[['CNF-SAT-VC:', '0,1,2'], ['APPROX-VC-1:', '0,1,2'], ['REFINED-APPROX-VC-1:', '0,1,2'], ['APPROX-VC-2:', '0,1,2,4'], ['REFINED-APPROX-VC-2:', '0,1,2'], ['CNF-SAT-VC-Time1:', '0.000573415'], ['APPROX-VC-1-Time2:', '0.000032633'], ['REFINED-APPROX-VC-1-Time3:', '0.000460434'], ['APPROX-VC-2-Time4:', '0.000033687'], ['REFINED-APPROX-VC-2-Time5:', '0.000499451']]

>>>>



CNF-SAT-VC: 0,1,2
APPROX-VC-1: 0,1,2
REFINED-APPROX-VC-1: 0,1,2
APPROX-VC-2: 0,1,3,5
REFINED-APPROX-VC-2: 0,1,3
CNF-SAT-VC-Time1: 0.000774835
APPROX-VC-1-Time2: 0.000111830
REFINED-APPROX-VC-1-Time3: 0.000487367
APPROX-VC-2-Time4: 0.000084747
REFINED-APPROX-VC-2-Time5: 0.000556847

6 - 1
['CNF-SAT-VC: 0,1,2', 'APPROX-VC-1: 0,1,2', 'REFINED-APPROX-VC-1: 0,1,2', 'APPROX-VC-2: 0,1,3,5', 'REFINED-APPROX-VC-2: 0,1,3', 'CNF-SAT-VC-Time1: 0.000774835', 'APPROX-VC-1-Time2: 0.000111830', 'REFINED-APPROX-VC-1-Time3: 0.000487367', 'APPROX-VC-2-Time4: 0.000084747', 'REFINED-APPROX-VC-2-Time5: 0.000556847']
[['CNF-SAT-VC:', '0,1,2'], ['APPROX-VC-1:', '0,1,2'], ['REFINED-APPROX-VC-1:', '0,1,2'], ['APPROX-VC-2:', '0,1,3,5'], ['REFINED-APPROX-VC-2:', '0,1,3'], ['CNF-SAT-VC-Time1:', '0.000774835'], ['APPROX-VC-1-Time2:', '0.000111830'], ['REFINED-APPROX-VC-1-Time3:', '0.000487367'], ['APPROX-VC-2-Time4:', '0.000084747'], ['REFINED-APPROX-VC-2-Time5:', '0.000556847']]

>>>>



CNF-SAT-VC: 0,1,2
APPROX-VC-1: 0,1,2
REFINED-APPROX-VC-1: 0,1,2
APPROX-VC-2: 0,1,2,3,4,5
REFINED-APPROX-VC-2: 0,1,2
CNF-SAT-VC-Time1: 0.000706439
APPROX-VC-1-Time2: 0.000127421
REFINED-APPROX-VC-1-Time3: 0.000503947
APPROX-VC-2-Time4: 0.000037154
REFINED-APPROX-VC-2-Time5: 0.000516141

6 - 2
['CNF-SAT-VC: 0,1,2', 'APPROX-VC-1: 0,1,2', 'REFINED-APPROX-VC-1: 0,1,2', 'APPROX-VC-2: 0,1,2,3,4,5', 'REFINED-APPROX-VC-2: 0,1,2', 'CNF-SAT-VC-Time1: 0.000706439', 'APPROX-VC-1-Time2: 0.000127421', 'REFINED-APPROX-VC-1-Time3: 0.000503947', 'APPROX-VC-2-Time4: 0.000037154', 'REFINED-APPROX-VC-2-Time5: 0.000516141']
[['CNF-SAT-VC:', '0,1,2'], ['APPROX-VC-1:', '0,1,2'], ['REFINED-APPROX-VC-1:', '0,1,2'], ['APPROX-VC-2:', '0,1,2,3,4,5'], ['REFINED-APPROX-VC-2:', '0,1,2'], ['CNF-SAT-VC-Time1:', '0.000706439'], ['APPROX-VC-1-Time2:', '0.000127421'], ['REFINED-APPROX-VC-1-Time3:', '0.000503947'], ['APPROX-VC-2-Time4:', '0.000037154'], ['REFINED-APPROX-VC-2-Time5:', '0.000516141']]

>>>>



CNF-SAT-VC: 0,1,2
APPROX-VC-1: 0,1,2
REFINED-APPROX-VC-1: 0,1,2
APPROX-VC-2: 0,1,2,4
REFINED-APPROX-VC-2: 0,1,2
CNF-SAT-VC-Time1: 0.000568759
APPROX-VC-1-Time2: 0.000020531
REFINED-APPROX-VC-1-Time3: 0.000552109
APPROX-VC-2-Time4: 0.000015789
REFINED-APPROX-VC-2-Time5: 0.000594210

6 - 3
['CNF-SAT-VC: 0,1,2', 'APPROX-VC-1: 0,1,2', 'REFINED-APPROX-VC-1: 0,1,2', 'APPROX-VC-2: 0,1,2,4', 'REFINED-APPROX-VC-2: 0,1,2', 'CNF-SAT-VC-Time1: 0.000568759', 'APPROX-VC-1-Time2: 0.000020531', 'REFINED-APPROX-VC-1-Time3: 0.000552109', 'APPROX-VC-2-Time4: 0.000015789', 'REFINED-APPROX-VC-2-Time5: 0.000594210']
[['CNF-SAT-VC:', '0,1,2'], ['APPROX-VC-1:', '0,1,2'], ['REFINED-APPROX-VC-1:', '0,1,2'], ['APPROX-VC-2:', '0,1,2,4'], ['REFINED-APPROX-VC-2:', '0,1,2'], ['CNF-SAT-VC-Time1:', '0.000568759'], ['APPROX-VC-1-Time2:', '0.000020531'], ['REFINED-APPROX-VC-1-Time3:', '0.000552109'], ['APPROX-VC-2-Time4:', '0.000015789'], ['REFINED-APPROX-VC-2-Time5:', '0.000594210']]

>>>>


CNF-SAT-VC: 0,1
APPROX-VC-1: 0,1
REFINED-APPROX-VC-1: 0,1
APPROX-VC-2: 0,1,2,4
REFINED-APPROX-VC-2: 0,1
CNF-SAT-VC-Time1: 0.000320573
APPROX-VC-1-Time2: 0.000042381
REFINED-APPROX-VC-1-Time3: 0.000533732
APPROX-VC-2-Time4: 0.000123222
REFINED-APPROX-VC-2-Time5: 0.000610043

6 - 4
['CNF-SAT-VC: 0,1', 'APPROX-VC-1: 0,1', 'REFINED-APPROX-VC-1: 0,1', 'APPROX-VC-2: 0,1,2,4', 'REFINED-APPROX-VC-2: 0,1', 'CNF-SAT-VC-Time1: 0.000320573', 'APPROX-VC-1-Time2: 0.000042381', 'REFINED-APPROX-VC-1-Time3: 0.000533732', 'APPROX-VC-2-Time4: 0.000123222', 'REFINED-APPROX-VC-2-Time5: 0.000610043']
[['CNF-SAT-VC:', '0,1'], ['APPROX-VC-1:', '0,1'], ['REFINED-APPROX-VC-1:', '0,1'], ['APPROX-VC-2:', '0,1,2,4'], ['REFINED-APPROX-VC-2:', '0,1'], ['CNF-SAT-VC-Time1:', '0.000320573'], ['APPROX-VC-1-Time2:', '0.000042381'], ['REFINED-APPROX-VC-1-Time3:', '0.000533732'], ['APPROX-VC-2-Time4:', '0.000123222'], ['REFINED-APPROX-VC-2-Time5:', '0.000610043']]

>>>>


CNF-SAT-VC: 0,1
APPROX-VC-1: 0,1
REFINED-APPROX-VC-1: 0,1
APPROX-VC-2: 0,1,2,5
REFINED-APPROX-VC-2: 0,1
CNF-SAT-VC-Time1: 0.000321827
APPROX-VC-1-Time2: 0.000013871
REFINED-APPROX-VC-1-Time3: 0.000480354
APPROX-VC-2-Time4: 0.000037508
REFINED-APPROX-VC-2-Time5: 0.000530542

6 - 5
['CNF-SAT-VC: 0,1', 'APPROX-VC-1: 0,1', 'REFINED-APPROX-VC-1: 0,1', 'APPROX-VC-2: 0,1,2,5', 'REFINED-APPROX-VC-2: 0,1', 'CNF-SAT-VC-Time1: 0.000321827', 'APPROX-VC-1-Time2: 0.000013871', 'REFINED-APPROX-VC-1-Time3: 0.000480354', 'APPROX-VC-2-Time4: 0.000037508', 'REFINED-APPROX-VC-2-Time5: 0.000530542']
[['CNF-SAT-VC:', '0,1'], ['APPROX-VC-1:', '0,1'], ['REFINED-APPROX-VC-1:', '0,1'], ['APPROX-VC-2:', '0,1,2,5'], ['REFINED-APPROX-VC-2:', '0,1'], ['CNF-SAT-VC-Time1:', '0.000321827'], ['APPROX-VC-1-Time2:', '0.000013871'], ['REFINED-APPROX-VC-1-Time3:', '0.000480354'], ['APPROX-VC-2-Time4:', '0.000037508'], ['REFINED-APPROX-VC-2-Time5:', '0.000530542']]

>>>>



CNF-SAT-VC: 0,1,2
APPROX-VC-1: 0,1,2
REFINED-APPROX-VC-1: 0,1,2
APPROX-VC-2: 0,2,3,5
REFINED-APPROX-VC-2: 0,2,3,5
CNF-SAT-VC-Time1: 0.000692738
APPROX-VC-1-Time2: 0.000120590
REFINED-APPROX-VC-1-Time3: 0.000481449
APPROX-VC-2-Time4: 0.000106084
REFINED-APPROX-VC-2-Time5: 0.000527918

6 - 6
['CNF-SAT-VC: 0,1,2', 'APPROX-VC-1: 0,1,2', 'REFINED-APPROX-VC-1: 0,1,2', 'APPROX-VC-2: 0,2,3,5', 'REFINED-APPROX-VC-2: 0,2,3,5', 'CNF-SAT-VC-Time1: 0.000692738', 'APPROX-VC-1-Time2: 0.000120590', 'REFINED-APPROX-VC-1-Time3: 0.000481449', 'APPROX-VC-2-Time4: 0.000106084', 'REFINED-APPROX-VC-2-Time5: 0.000527918']
[['CNF-SAT-VC:', '0,1,2'], ['APPROX-VC-1:', '0,1,2'], ['REFINED-APPROX-VC-1:', '0,1,2'], ['APPROX-VC-2:', '0,2,3,5'], ['REFINED-APPROX-VC-2:', '0,2,3,5'], ['CNF-SAT-VC-Time1:', '0.000692738'], ['APPROX-VC-1-Time2:', '0.000120590'], ['REFINED-APPROX-VC-1-Time3:', '0.000481449'], ['APPROX-VC-2-Time4:', '0.000106084'], ['REFINED-APPROX-VC-2-Time5:', '0.000527918']]

>>>>



CNF-SAT-VC: 0,1,2
APPROX-VC-1: 0,1,2
REFINED-APPROX-VC-1: 0,1,2
APPROX-VC-2: 0,1,2,3
REFINED-APPROX-VC-2: 0,1,2
CNF-SAT-VC-Time1: 0.000784365
APPROX-VC-1-Time2: 0.000121893
REFINED-APPROX-VC-1-Time3: 0.000563040
APPROX-VC-2-Time4: 0.000032220
REFINED-APPROX-VC-2-Time5: 0.000507922

6 - 7
['CNF-SAT-VC: 0,1,2', 'APPROX-VC-1: 0,1,2', 'REFINED-APPROX-VC-1: 0,1,2', 'APPROX-VC-2: 0,1,2,3', 'REFINED-APPROX-VC-2: 0,1,2', 'CNF-SAT-VC-Time1: 0.000784365', 'APPROX-VC-1-Time2: 0.000121893', 'REFINED-APPROX-VC-1-Time3: 0.000563040', 'APPROX-VC-2-Time4: 0.000032220', 'REFINED-APPROX-VC-2-Time5: 0.000507922']
[['CNF-SAT-VC:', '0,1,2'], ['APPROX-VC-1:', '0,1,2'], ['REFINED-APPROX-VC-1:', '0,1,2'], ['APPROX-VC-2:', '0,1,2,3'], ['REFINED-APPROX-VC-2:', '0,1,2'], ['CNF-SAT-VC-Time1:', '0.000784365'], ['APPROX-VC-1-Time2:', '0.000121893'], ['REFINED-APPROX-VC-1-Time3:', '0.000563040'], ['APPROX-VC-2-Time4:', '0.000032220'], ['REFINED-APPROX-VC-2-Time5:', '0.000507922']]

>>>>



CNF-SAT-VC: 0,1,2
APPROX-VC-1: 0,1,2
REFINED-APPROX-VC-1: 0,1,2
APPROX-VC-2: 0,1,2,3
REFINED-APPROX-VC-2: 0,1,2
CNF-SAT-VC-Time1: 0.000788690
APPROX-VC-1-Time2: 0.000091644
REFINED-APPROX-VC-1-Time3: 0.000480704
APPROX-VC-2-Time4: 0.000016517
REFINED-APPROX-VC-2-Time5: 0.000606385

6 - 8
['CNF-SAT-VC: 0,1,2', 'APPROX-VC-1: 0,1,2', 'REFINED-APPROX-VC-1: 0,1,2', 'APPROX-VC-2: 0,1,2,3', 'REFINED-APPROX-VC-2: 0,1,2', 'CNF-SAT-VC-Time1: 0.000788690', 'APPROX-VC-1-Time2: 0.000091644', 'REFINED-APPROX-VC-1-Time3: 0.000480704', 'APPROX-VC-2-Time4: 0.000016517', 'REFINED-APPROX-VC-2-Time5: 0.000606385']
[['CNF-SAT-VC:', '0,1,2'], ['APPROX-VC-1:', '0,1,2'], ['REFINED-APPROX-VC-1:', '0,1,2'], ['APPROX-VC-2:', '0,1,2,3'], ['REFINED-APPROX-VC-2:', '0,1,2'], ['CNF-SAT-VC-Time1:', '0.000788690'], ['APPROX-VC-1-Time2:', '0.000091644'], ['REFINED-APPROX-VC-1-Time3:', '0.000480704'], ['APPROX-VC-2-Time4:', '0.000016517'], ['REFINED-APPROX-VC-2-Time5:', '0.000606385']]

>>>>



CNF-SAT-VC: 0,1,2
APPROX-VC-1: 0,1,2
REFINED-APPROX-VC-1: 0,1,2
APPROX-VC-2: 0,1,2,5
REFINED-APPROX-VC-2: 0,1,2
CNF-SAT-VC-Time1: 0.000556139
APPROX-VC-1-Time2: 0.000021210
REFINED-APPROX-VC-1-Time3: 0.000506215
APPROX-VC-2-Time4: 0.000030373
REFINED-APPROX-VC-2-Time5: 0.000495728

6 - 9
['CNF-SAT-VC: 0,1,2', 'APPROX-VC-1: 0,1,2', 'REFINED-APPROX-VC-1: 0,1,2', 'APPROX-VC-2: 0,1,2,5', 'REFINED-APPROX-VC-2: 0,1,2', 'CNF-SAT-VC-Time1: 0.000556139', 'APPROX-VC-1-Time2: 0.000021210', 'REFINED-APPROX-VC-1-Time3: 0.000506215', 'APPROX-VC-2-Time4: 0.000030373', 'REFINED-APPROX-VC-2-Time5: 0.000495728']
[['CNF-SAT-VC:', '0,1,2'], ['APPROX-VC-1:', '0,1,2'], ['REFINED-APPROX-VC-1:', '0,1,2'], ['APPROX-VC-2:', '0,1,2,5'], ['REFINED-APPROX-VC-2:', '0,1,2'], ['CNF-SAT-VC-Time1:', '0.000556139'], ['APPROX-VC-1-Time2:', '0.000021210'], ['REFINED-APPROX-VC-1-Time3:', '0.000506215'], ['APPROX-VC-2-Time4:', '0.000030373'], ['REFINED-APPROX-VC-2-Time5:', '0.000495728']]

>>>>



CNF-SAT-VC: 0,1,2
APPROX-VC-1: 0,1,2
REFINED-APPROX-VC-1: 0,1,2
APPROX-VC-2: 0,1,2,3,4,5
REFINED-APPROX-VC-2: 0,1,2
CNF-SAT-VC-Time1: 0.000734602
APPROX-VC-1-Time2: 0.000139556
REFINED-APPROX-VC-1-Time3: 0.000673587
APPROX-VC-2-Time4: 0.000020898
REFINED-APPROX-VC-2-Time5: 0.000589641

7 - 0
['CNF-SAT-VC: 0,1,2', 'APPROX-VC-1: 0,1,2', 'REFINED-APPROX-VC-1: 0,1,2', 'APPROX-VC-2: 0,1,2,3,4,5', 'REFINED-APPROX-VC-2: 0,1,2', 'CNF-SAT-VC-Time1: 0.000734602', 'APPROX-VC-1-Time2: 0.000139556', 'REFINED-APPROX-VC-1-Time3: 0.000673587', 'APPROX-VC-2-Time4: 0.000020898', 'REFINED-APPROX-VC-2-Time5: 0.000589641']
[['CNF-SAT-VC:', '0,1,2'], ['APPROX-VC-1:', '0,1,2'], ['REFINED-APPROX-VC-1:', '0,1,2'], ['APPROX-VC-2:', '0,1,2,3,4,5'], ['REFINED-APPROX-VC-2:', '0,1,2'], ['CNF-SAT-VC-Time1:', '0.000734602'], ['APPROX-VC-1-Time2:', '0.000139556'], ['REFINED-APPROX-VC-1-Time3:', '0.000673587'], ['APPROX-VC-2-Time4:', '0.000020898'], ['REFINED-APPROX-VC-2-Time5:', '0.000589641']]

>>>>




CNF-SAT-VC: 0,1,2,3
APPROX-VC-1: 0,1,2,3
REFINED-APPROX-VC-1: 0,1,2,3
APPROX-VC-2: 0,1,2,3,4,5
REFINED-APPROX-VC-2: 0,1,2,3
CNF-SAT-VC-Time1: 0.001559874
APPROX-VC-1-Time2: 0.000041457
REFINED-APPROX-VC-1-Time3: 0.000426157
APPROX-VC-2-Time4: 0.000013155
REFINED-APPROX-VC-2-Time5: 0.000499439

7 - 1
['CNF-SAT-VC: 0,1,2,3', 'APPROX-VC-1: 0,1,2,3', 'REFINED-APPROX-VC-1: 0,1,2,3', 'APPROX-VC-2: 0,1,2,3,4,5', 'REFINED-APPROX-VC-2: 0,1,2,3', 'CNF-SAT-VC-Time1: 0.001559874', 'APPROX-VC-1-Time2: 0.000041457', 'REFINED-APPROX-VC-1-Time3: 0.000426157', 'APPROX-VC-2-Time4: 0.000013155', 'REFINED-APPROX-VC-2-Time5: 0.000499439']
[['CNF-SAT-VC:', '0,1,2,3'], ['APPROX-VC-1:', '0,1,2,3'], ['REFINED-APPROX-VC-1:', '0,1,2,3'], ['APPROX-VC-2:', '0,1,2,3,4,5'], ['REFINED-APPROX-VC-2:', '0,1,2,3'], ['CNF-SAT-VC-Time1:', '0.001559874'], ['APPROX-VC-1-Time2:', '0.000041457'], ['REFINED-APPROX-VC-1-Time3:', '0.000426157'], ['APPROX-VC-2-Time4:', '0.000013155'], ['REFINED-APPROX-VC-2-Time5:', '0.000499439']]

>>>>



CNF-SAT-VC: 0,1,2
APPROX-VC-1: 0,1,2
REFINED-APPROX-VC-1: 0,1,2
APPROX-VC-2: 0,1,2,3,4,5
REFINED-APPROX-VC-2: 0,1,2
CNF-SAT-VC-Time1: 0.000792768
APPROX-VC-1-Time2: 0.000100657
REFINED-APPROX-VC-1-Time3: 0.000625092
APPROX-VC-2-Time4: 0.000098269
REFINED-APPROX-VC-2-Time5: 0.000702102

7 - 2
['CNF-SAT-VC: 0,1,2', 'APPROX-VC-1: 0,1,2', 'REFINED-APPROX-VC-1: 0,1,2', 'APPROX-VC-2: 0,1,2,3,4,5', 'REFINED-APPROX-VC-2: 0,1,2', 'CNF-SAT-VC-Time1: 0.000792768', 'APPROX-VC-1-Time2: 0.000100657', 'REFINED-APPROX-VC-1-Time3: 0.000625092', 'APPROX-VC-2-Time4: 0.000098269', 'REFINED-APPROX-VC-2-Time5: 0.000702102']
[['CNF-SAT-VC:', '0,1,2'], ['APPROX-VC-1:', '0,1,2'], ['REFINED-APPROX-VC-1:', '0,1,2'], ['APPROX-VC-2:', '0,1,2,3,4,5'], ['REFINED-APPROX-VC-2:', '0,1,2'], ['CNF-SAT-VC-Time1:', '0.000792768'], ['APPROX-VC-1-Time2:', '0.000100657'], ['REFINED-APPROX-VC-1-Time3:', '0.000625092'], ['APPROX-VC-2-Time4:', '0.000098269'], ['REFINED-APPROX-VC-2-Time5:', '0.000702102']]

>>>>




CNF-SAT-VC: 0,1,2,3
APPROX-VC-1: 0,1,2,3
REFINED-APPROX-VC-1: 0,1,2,3
APPROX-VC-2: 0,1,2,3,5,6
REFINED-APPROX-VC-2: 0,1,2,3
CNF-SAT-VC-Time1: 0.001800668
APPROX-VC-1-Time2: 0.000035252
REFINED-APPROX-VC-1-Time3: 0.000501826
APPROX-VC-2-Time4: 0.000070246
REFINED-APPROX-VC-2-Time5: 0.000582043

7 - 3
['CNF-SAT-VC: 0,1,2,3', 'APPROX-VC-1: 0,1,2,3', 'REFINED-APPROX-VC-1: 0,1,2,3', 'APPROX-VC-2: 0,1,2,3,5,6', 'REFINED-APPROX-VC-2: 0,1,2,3', 'CNF-SAT-VC-Time1: 0.001800668', 'APPROX-VC-1-Time2: 0.000035252', 'REFINED-APPROX-VC-1-Time3: 0.000501826', 'APPROX-VC-2-Time4: 0.000070246', 'REFINED-APPROX-VC-2-Time5: 0.000582043']
[['CNF-SAT-VC:', '0,1,2,3'], ['APPROX-VC-1:', '0,1,2,3'], ['REFINED-APPROX-VC-1:', '0,1,2,3'], ['APPROX-VC-2:', '0,1,2,3,5,6'], ['REFINED-APPROX-VC-2:', '0,1,2,3'], ['CNF-SAT-VC-Time1:', '0.001800668'], ['APPROX-VC-1-Time2:', '0.000035252'], ['REFINED-APPROX-VC-1-Time3:', '0.000501826'], ['APPROX-VC-2-Time4:', '0.000070246'], ['REFINED-APPROX-VC-2-Time5:', '0.000582043']]

>>>>



CNF-SAT-VC: 1,5,6
APPROX-VC-1: 1,5,6
REFINED-APPROX-VC-1: 1,5,6
APPROX-VC-2: 0,1,2,3,5,6
REFINED-APPROX-VC-2: 0,1,3,5
CNF-SAT-VC-Time1: 0.001088893
APPROX-VC-1-Time2: 0.000160919
REFINED-APPROX-VC-1-Time3: 0.000501277
APPROX-VC-2-Time4: 0.000041655
REFINED-APPROX-VC-2-Time5: 0.000578591

7 - 4
['CNF-SAT-VC: 1,5,6', 'APPROX-VC-1: 1,5,6', 'REFINED-APPROX-VC-1: 1,5,6', 'APPROX-VC-2: 0,1,2,3,5,6', 'REFINED-APPROX-VC-2: 0,1,3,5', 'CNF-SAT-VC-Time1: 0.001088893', 'APPROX-VC-1-Time2: 0.000160919', 'REFINED-APPROX-VC-1-Time3: 0.000501277', 'APPROX-VC-2-Time4: 0.000041655', 'REFINED-APPROX-VC-2-Time5: 0.000578591']
[['CNF-SAT-VC:', '1,5,6'], ['APPROX-VC-1:', '1,5,6'], ['REFINED-APPROX-VC-1:', '1,5,6'], ['APPROX-VC-2:', '0,1,2,3,5,6'], ['REFINED-APPROX-VC-2:', '0,1,3,5'], ['CNF-SAT-VC-Time1:', '0.001088893'], ['APPROX-VC-1-Time2:', '0.000160919'], ['REFINED-APPROX-VC-1-Time3:', '0.000501277'], ['APPROX-VC-2-Time4:', '0.000041655'], ['REFINED-APPROX-VC-2-Time5:', '0.000578591']]

>>>>



CNF-SAT-VC: 0,1,4
APPROX-VC-1: 0,1,4
REFINED-APPROX-VC-1: 0,1,4
APPROX-VC-2: 0,1,2,4
REFINED-APPROX-VC-2: 0,1,4
CNF-SAT-VC-Time1: 0.000580412
APPROX-VC-1-Time2: 0.000090239
REFINED-APPROX-VC-1-Time3: 0.000578752
APPROX-VC-2-Time4: 0.000117834
REFINED-APPROX-VC-2-Time5: 0.000604979

7 - 5
['CNF-SAT-VC: 0,1,4', 'APPROX-VC-1: 0,1,4', 'REFINED-APPROX-VC-1: 0,1,4', 'APPROX-VC-2: 0,1,2,4', 'REFINED-APPROX-VC-2: 0,1,4', 'CNF-SAT-VC-Time1: 0.000580412', 'APPROX-VC-1-Time2: 0.000090239', 'REFINED-APPROX-VC-1-Time3: 0.000578752', 'APPROX-VC-2-Time4: 0.000117834', 'REFINED-APPROX-VC-2-Time5: 0.000604979']
[['CNF-SAT-VC:', '0,1,4'], ['APPROX-VC-1:', '0,1,4'], ['REFINED-APPROX-VC-1:', '0,1,4'], ['APPROX-VC-2:', '0,1,2,4'], ['REFINED-APPROX-VC-2:', '0,1,4'], ['CNF-SAT-VC-Time1:', '0.000580412'], ['APPROX-VC-1-Time2:', '0.000090239'], ['REFINED-APPROX-VC-1-Time3:', '0.000578752'], ['APPROX-VC-2-Time4:', '0.000117834'], ['REFINED-APPROX-VC-2-Time5:', '0.000604979']]

>>>>



CNF-SAT-VC: 0,1,2
APPROX-VC-1: 0,1,2
REFINED-APPROX-VC-1: 0,1,2
APPROX-VC-2: 0,1,2,3,4,6
REFINED-APPROX-VC-2: 0,1,2
CNF-SAT-VC-Time1: 0.000785351
APPROX-VC-1-Time2: 0.000030170
REFINED-APPROX-VC-1-Time3: 0.000524868
APPROX-VC-2-Time4: 0.000080868
REFINED-APPROX-VC-2-Time5: 0.000543978

7 - 6
['CNF-SAT-VC: 0,1,2', 'APPROX-VC-1: 0,1,2', 'REFINED-APPROX-VC-1: 0,1,2', 'APPROX-VC-2: 0,1,2,3,4,6', 'REFINED-APPROX-VC-2: 0,1,2', 'CNF-SAT-VC-Time1: 0.000785351', 'APPROX-VC-1-Time2: 0.000030170', 'REFINED-APPROX-VC-1-Time3: 0.000524868', 'APPROX-VC-2-Time4: 0.000080868', 'REFINED-APPROX-VC-2-Time5: 0.000543978']
[['CNF-SAT-VC:', '0,1,2'], ['APPROX-VC-1:', '0,1,2'], ['REFINED-APPROX-VC-1:', '0,1,2'], ['APPROX-VC-2:', '0,1,2,3,4,6'], ['REFINED-APPROX-VC-2:', '0,1,2'], ['CNF-SAT-VC-Time1:', '0.000785351'], ['APPROX-VC-1-Time2:', '0.000030170'], ['REFINED-APPROX-VC-1-Time3:', '0.000524868'], ['APPROX-VC-2-Time4:', '0.000080868'], ['REFINED-APPROX-VC-2-Time5:', '0.000543978']]

>>>>




CNF-SAT-VC: 0,1,2,4
APPROX-VC-1: 0,1,2,4
REFINED-APPROX-VC-1: 0,1,2,4
APPROX-VC-2: 0,2,3,4,5,6
REFINED-APPROX-VC-2: 0,2,3,4
CNF-SAT-VC-Time1: 0.001650368
APPROX-VC-1-Time2: 0.000049157
REFINED-APPROX-VC-1-Time3: 0.000580194
APPROX-VC-2-Time4: 0.000057058
REFINED-APPROX-VC-2-Time5: 0.000611903

7 - 7
['CNF-SAT-VC: 0,1,2,4', 'APPROX-VC-1: 0,1,2,4', 'REFINED-APPROX-VC-1: 0,1,2,4', 'APPROX-VC-2: 0,2,3,4,5,6', 'REFINED-APPROX-VC-2: 0,2,3,4', 'CNF-SAT-VC-Time1: 0.001650368', 'APPROX-VC-1-Time2: 0.000049157', 'REFINED-APPROX-VC-1-Time3: 0.000580194', 'APPROX-VC-2-Time4: 0.000057058', 'REFINED-APPROX-VC-2-Time5: 0.000611903']
[['CNF-SAT-VC:', '0,1,2,4'], ['APPROX-VC-1:', '0,1,2,4'], ['REFINED-APPROX-VC-1:', '0,1,2,4'], ['APPROX-VC-2:', '0,2,3,4,5,6'], ['REFINED-APPROX-VC-2:', '0,2,3,4'], ['CNF-SAT-VC-Time1:', '0.001650368'], ['APPROX-VC-1-Time2:', '0.000049157'], ['REFINED-APPROX-VC-1-Time3:', '0.000580194'], ['APPROX-VC-2-Time4:', '0.000057058'], ['REFINED-APPROX-VC-2-Time5:', '0.000611903']]

>>>>



CNF-SAT-VC: 0,1,2
APPROX-VC-1: 0,1,2
REFINED-APPROX-VC-1: 0,1,2
APPROX-VC-2: 1,2,3,4
REFINED-APPROX-VC-2: 1,2,4
CNF-SAT-VC-Time1: 0.000701427
APPROX-VC-1-Time2: 0.000087174
REFINED-APPROX-VC-1-Time3: 0.000574821
APPROX-VC-2-Time4: 0.000032171
REFINED-APPROX-VC-2-Time5: 0.000460505

7 - 8
['CNF-SAT-VC: 0,1,2', 'APPROX-VC-1: 0,1,2', 'REFINED-APPROX-VC-1: 0,1,2', 'APPROX-VC-2: 1,2,3,4', 'REFINED-APPROX-VC-2: 1,2,4', 'CNF-SAT-VC-Time1: 0.000701427', 'APPROX-VC-1-Time2: 0.000087174', 'REFINED-APPROX-VC-1-Time3: 0.000574821', 'APPROX-VC-2-Time4: 0.000032171', 'REFINED-APPROX-VC-2-Time5: 0.000460505']
[['CNF-SAT-VC:', '0,1,2'], ['APPROX-VC-1:', '0,1,2'], ['REFINED-APPROX-VC-1:', '0,1,2'], ['APPROX-VC-2:', '1,2,3,4'], ['REFINED-APPROX-VC-2:', '1,2,4'], ['CNF-SAT-VC-Time1:', '0.000701427'], ['APPROX-VC-1-Time2:', '0.000087174'], ['REFINED-APPROX-VC-1-Time3:', '0.000574821'], ['APPROX-VC-2-Time4:', '0.000032171'], ['REFINED-APPROX-VC-2-Time5:', '0.000460505']]

>>>>




CNF-SAT-VC: 0,1,2,3
APPROX-VC-1: 0,1,2,3
REFINED-APPROX-VC-1: 0,1,2,3
APPROX-VC-2: 0,1,2,3
REFINED-APPROX-VC-2: 0,1,2,3
CNF-SAT-VC-Time1: 0.001580871
APPROX-VC-1-Time2: 0.000048959
REFINED-APPROX-VC-1-Time3: 0.000571773
APPROX-VC-2-Time4: 0.000033638
REFINED-APPROX-VC-2-Time5: 0.000610278

7 - 9
['CNF-SAT-VC: 0,1,2,3', 'APPROX-VC-1: 0,1,2,3', 'REFINED-APPROX-VC-1: 0,1,2,3', 'APPROX-VC-2: 0,1,2,3', 'REFINED-APPROX-VC-2: 0,1,2,3', 'CNF-SAT-VC-Time1: 0.001580871', 'APPROX-VC-1-Time2: 0.000048959', 'REFINED-APPROX-VC-1-Time3: 0.000571773', 'APPROX-VC-2-Time4: 0.000033638', 'REFINED-APPROX-VC-2-Time5: 0.000610278']
[['CNF-SAT-VC:', '0,1,2,3'], ['APPROX-VC-1:', '0,1,2,3'], ['REFINED-APPROX-VC-1:', '0,1,2,3'], ['APPROX-VC-2:', '0,1,2,3'], ['REFINED-APPROX-VC-2:', '0,1,2,3'], ['CNF-SAT-VC-Time1:', '0.001580871'], ['APPROX-VC-1-Time2:', '0.000048959'], ['REFINED-APPROX-VC-1-Time3:', '0.000571773'], ['APPROX-VC-2-Time4:', '0.000033638'], ['REFINED-APPROX-VC-2-Time5:', '0.000610278']]

>>>>



CNF-SAT-VC: 0,1,4
APPROX-VC-1: 0,1,4
REFINED-APPROX-VC-1: 0,1,4
APPROX-VC-2: 0,1,2,3,4,6
REFINED-APPROX-VC-2: 0,1,4
CNF-SAT-VC-Time1: 0.000777972
APPROX-VC-1-Time2: 0.000070647
REFINED-APPROX-VC-1-Time3: 0.000596667
APPROX-VC-2-Time4: 0.000021517
REFINED-APPROX-VC-2-Time5: 0.000634589

8 - 0
['CNF-SAT-VC: 0,1,4', 'APPROX-VC-1: 0,1,4', 'REFINED-APPROX-VC-1: 0,1,4', 'APPROX-VC-2: 0,1,2,3,4,6', 'REFINED-APPROX-VC-2: 0,1,4', 'CNF-SAT-VC-Time1: 0.000777972', 'APPROX-VC-1-Time2: 0.000070647', 'REFINED-APPROX-VC-1-Time3: 0.000596667', 'APPROX-VC-2-Time4: 0.000021517', 'REFINED-APPROX-VC-2-Time5: 0.000634589']
[['CNF-SAT-VC:', '0,1,4'], ['APPROX-VC-1:', '0,1,4'], ['REFINED-APPROX-VC-1:', '0,1,4'], ['APPROX-VC-2:', '0,1,2,3,4,6'], ['REFINED-APPROX-VC-2:', '0,1,4'], ['CNF-SAT-VC-Time1:', '0.000777972'], ['APPROX-VC-1-Time2:', '0.000070647'], ['REFINED-APPROX-VC-1-Time3:', '0.000596667'], ['APPROX-VC-2-Time4:', '0.000021517'], ['REFINED-APPROX-VC-2-Time5:', '0.000634589']]

>>>>



CNF-SAT-VC: 0,1,3
APPROX-VC-1: 0,1,3
REFINED-APPROX-VC-1: 0,1,3
APPROX-VC-2: 0,1,3,4,6,7
REFINED-APPROX-VC-2: 0,1,3
CNF-SAT-VC-Time1: 0.000799750
APPROX-VC-1-Time2: 0.000103535
REFINED-APPROX-VC-1-Time3: 0.000487603
APPROX-VC-2-Time4: 0.000062019
REFINED-APPROX-VC-2-Time5: 0.000571305

8 - 1
['CNF-SAT-VC: 0,1,3', 'APPROX-VC-1: 0,1,3', 'REFINED-APPROX-VC-1: 0,1,3', 'APPROX-VC-2: 0,1,3,4,6,7', 'REFINED-APPROX-VC-2: 0,1,3', 'CNF-SAT-VC-Time1: 0.000799750', 'APPROX-VC-1-Time2: 0.000103535', 'REFINED-APPROX-VC-1-Time3: 0.000487603', 'APPROX-VC-2-Time4: 0.000062019', 'REFINED-APPROX-VC-2-Time5: 0.000571305']
[['CNF-SAT-VC:', '0,1,3'], ['APPROX-VC-1:', '0,1,3'], ['REFINED-APPROX-VC-1:', '0,1,3'], ['APPROX-VC-2:', '0,1,3,4,6,7'], ['REFINED-APPROX-VC-2:', '0,1,3'], ['CNF-SAT-VC-Time1:', '0.000799750'], ['APPROX-VC-1-Time2:', '0.000103535'], ['REFINED-APPROX-VC-1-Time3:', '0.000487603'], ['APPROX-VC-2-Time4:', '0.000062019'], ['REFINED-APPROX-VC-2-Time5:', '0.000571305']]

>>>>




CNF-SAT-VC: 0,1,2,5
APPROX-VC-1: 0,1,2,5
REFINED-APPROX-VC-1: 0,1,2,5
APPROX-VC-2: 0,2,3,4,5,6
REFINED-APPROX-VC-2: 0,2,3,5,6
CNF-SAT-VC-Time1: 0.001758351
APPROX-VC-1-Time2: 0.000030536
REFINED-APPROX-VC-1-Time3: 0.000531131
APPROX-VC-2-Time4: 0.000082930
REFINED-APPROX-VC-2-Time5: 0.000601400

8 - 2
['CNF-SAT-VC: 0,1,2,5', 'APPROX-VC-1: 0,1,2,5', 'REFINED-APPROX-VC-1: 0,1,2,5', 'APPROX-VC-2: 0,2,3,4,5,6', 'REFINED-APPROX-VC-2: 0,2,3,5,6', 'CNF-SAT-VC-Time1: 0.001758351', 'APPROX-VC-1-Time2: 0.000030536', 'REFINED-APPROX-VC-1-Time3: 0.000531131', 'APPROX-VC-2-Time4: 0.000082930', 'REFINED-APPROX-VC-2-Time5: 0.000601400']
[['CNF-SAT-VC:', '0,1,2,5'], ['APPROX-VC-1:', '0,1,2,5'], ['REFINED-APPROX-VC-1:', '0,1,2,5'], ['APPROX-VC-2:', '0,2,3,4,5,6'], ['REFINED-APPROX-VC-2:', '0,2,3,5,6'], ['CNF-SAT-VC-Time1:', '0.001758351'], ['APPROX-VC-1-Time2:', '0.000030536'], ['REFINED-APPROX-VC-1-Time3:', '0.000531131'], ['APPROX-VC-2-Time4:', '0.000082930'], ['REFINED-APPROX-VC-2-Time5:', '0.000601400']]

>>>>




CNF-SAT-VC: 0,1,3,5
APPROX-VC-1: 0,1,3,5
REFINED-APPROX-VC-1: 0,1,3,5
APPROX-VC-2: 0,2,3,4,5,7
REFINED-APPROX-VC-2: 0,2,3,5
CNF-SAT-VC-Time1: 0.001539597
APPROX-VC-1-Time2: 0.000102911
REFINED-APPROX-VC-1-Time3: 0.000593218
APPROX-VC-2-Time4: 0.000072982
REFINED-APPROX-VC-2-Time5: 0.000620455

8 - 3
['CNF-SAT-VC: 0,1,3,5', 'APPROX-VC-1: 0,1,3,5', 'REFINED-APPROX-VC-1: 0,1,3,5', 'APPROX-VC-2: 0,2,3,4,5,7', 'REFINED-APPROX-VC-2: 0,2,3,5', 'CNF-SAT-VC-Time1: 0.001539597', 'APPROX-VC-1-Time2: 0.000102911', 'REFINED-APPROX-VC-1-Time3: 0.000593218', 'APPROX-VC-2-Time4: 0.000072982', 'REFINED-APPROX-VC-2-Time5: 0.000620455']
[['CNF-SAT-VC:', '0,1,3,5'], ['APPROX-VC-1:', '0,1,3,5'], ['REFINED-APPROX-VC-1:', '0,1,3,5'], ['APPROX-VC-2:', '0,2,3,4,5,7'], ['REFINED-APPROX-VC-2:', '0,2,3,5'], ['CNF-SAT-VC-Time1:', '0.001539597'], ['APPROX-VC-1-Time2:', '0.000102911'], ['REFINED-APPROX-VC-1-Time3:', '0.000593218'], ['APPROX-VC-2-Time4:', '0.000072982'], ['REFINED-APPROX-VC-2-Time5:', '0.000620455']]

>>>>





CNF-SAT-VC: 0,1,2,3,4
APPROX-VC-1: 0,1,2,3,6
REFINED-APPROX-VC-1: 0,1,2,3,6
APPROX-VC-2: 0,1,2,3,4,6
REFINED-APPROX-VC-2: 0,1,2,3,4
CNF-SAT-VC-Time1: 0.008240151
APPROX-VC-1-Time2: 0.000102392
REFINED-APPROX-VC-1-Time3: 0.000745525
APPROX-VC-2-Time4: 0.000095738
REFINED-APPROX-VC-2-Time5: 0.000704693

8 - 4
['CNF-SAT-VC: 0,1,2,3,4', 'APPROX-VC-1: 0,1,2,3,6', 'REFINED-APPROX-VC-1: 0,1,2,3,6', 'APPROX-VC-2: 0,1,2,3,4,6', 'REFINED-APPROX-VC-2: 0,1,2,3,4', 'CNF-SAT-VC-Time1: 0.008240151', 'APPROX-VC-1-Time2: 0.000102392', 'REFINED-APPROX-VC-1-Time3: 0.000745525', 'APPROX-VC-2-Time4: 0.000095738', 'REFINED-APPROX-VC-2-Time5: 0.000704693']
[['CNF-SAT-VC:', '0,1,2,3,4'], ['APPROX-VC-1:', '0,1,2,3,6'], ['REFINED-APPROX-VC-1:', '0,1,2,3,6'], ['APPROX-VC-2:', '0,1,2,3,4,6'], ['REFINED-APPROX-VC-2:', '0,1,2,3,4'], ['CNF-SAT-VC-Time1:', '0.008240151'], ['APPROX-VC-1-Time2:', '0.000102392'], ['REFINED-APPROX-VC-1-Time3:', '0.000745525'], ['APPROX-VC-2-Time4:', '0.000095738'], ['REFINED-APPROX-VC-2-Time5:', '0.000704693']]

>>>>



CNF-SAT-VC: 0,1,2
APPROX-VC-1: 0,1,2
REFINED-APPROX-VC-1: 0,1,2
APPROX-VC-2: 0,1,2,4,5,7
REFINED-APPROX-VC-2: 0,1,2
CNF-SAT-VC-Time1: 0.000870518
APPROX-VC-1-Time2: 0.000130807
REFINED-APPROX-VC-1-Time3: 0.000548872
APPROX-VC-2-Time4: 0.000031443
REFINED-APPROX-VC-2-Time5: 0.000518534

8 - 5
['CNF-SAT-VC: 0,1,2', 'APPROX-VC-1: 0,1,2', 'REFINED-APPROX-VC-1: 0,1,2', 'APPROX-VC-2: 0,1,2,4,5,7', 'REFINED-APPROX-VC-2: 0,1,2', 'CNF-SAT-VC-Time1: 0.000870518', 'APPROX-VC-1-Time2: 0.000130807', 'REFINED-APPROX-VC-1-Time3: 0.000548872', 'APPROX-VC-2-Time4: 0.000031443', 'REFINED-APPROX-VC-2-Time5: 0.000518534']
[['CNF-SAT-VC:', '0,1,2'], ['APPROX-VC-1:', '0,1,2'], ['REFINED-APPROX-VC-1:', '0,1,2'], ['APPROX-VC-2:', '0,1,2,4,5,7'], ['REFINED-APPROX-VC-2:', '0,1,2'], ['CNF-SAT-VC-Time1:', '0.000870518'], ['APPROX-VC-1-Time2:', '0.000130807'], ['REFINED-APPROX-VC-1-Time3:', '0.000548872'], ['APPROX-VC-2-Time4:', '0.000031443'], ['REFINED-APPROX-VC-2-Time5:', '0.000518534']]

>>>>




CNF-SAT-VC: 0,1,2,4
APPROX-VC-1: 0,1,2,4
REFINED-APPROX-VC-1: 0,1,2,4
APPROX-VC-2: 0,1,3,4,5,7
REFINED-APPROX-VC-2: 0,1,4,7
CNF-SAT-VC-Time1: 0.001622516
APPROX-VC-1-Time2: 0.000145914
REFINED-APPROX-VC-1-Time3: 0.000676628
APPROX-VC-2-Time4: 0.000038428
REFINED-APPROX-VC-2-Time5: 0.000688579

8 - 6
['CNF-SAT-VC: 0,1,2,4', 'APPROX-VC-1: 0,1,2,4', 'REFINED-APPROX-VC-1: 0,1,2,4', 'APPROX-VC-2: 0,1,3,4,5,7', 'REFINED-APPROX-VC-2: 0,1,4,7', 'CNF-SAT-VC-Time1: 0.001622516', 'APPROX-VC-1-Time2: 0.000145914', 'REFINED-APPROX-VC-1-Time3: 0.000676628', 'APPROX-VC-2-Time4: 0.000038428', 'REFINED-APPROX-VC-2-Time5: 0.000688579']
[['CNF-SAT-VC:', '0,1,2,4'], ['APPROX-VC-1:', '0,1,2,4'], ['REFINED-APPROX-VC-1:', '0,1,2,4'], ['APPROX-VC-2:', '0,1,3,4,5,7'], ['REFINED-APPROX-VC-2:', '0,1,4,7'], ['CNF-SAT-VC-Time1:', '0.001622516'], ['APPROX-VC-1-Time2:', '0.000145914'], ['REFINED-APPROX-VC-1-Time3:', '0.000676628'], ['APPROX-VC-2-Time4:', '0.000038428'], ['REFINED-APPROX-VC-2-Time5:', '0.000688579']]

>>>>




CNF-SAT-VC: 0,1,3,4
APPROX-VC-1: 0,1,3,4
REFINED-APPROX-VC-1: 0,1,3,4
APPROX-VC-2: 0,1,3,4,5,7
REFINED-APPROX-VC-2: 0,1,3,4
CNF-SAT-VC-Time1: 0.001720380
APPROX-VC-1-Time2: 0.000062415
REFINED-APPROX-VC-1-Time3: 0.000626084
APPROX-VC-2-Time4: 0.000028654
REFINED-APPROX-VC-2-Time5: 0.000693295

8 - 7
['CNF-SAT-VC: 0,1,3,4', 'APPROX-VC-1: 0,1,3,4', 'REFINED-APPROX-VC-1: 0,1,3,4', 'APPROX-VC-2: 0,1,3,4,5,7', 'REFINED-APPROX-VC-2: 0,1,3,4', 'CNF-SAT-VC-Time1: 0.001720380', 'APPROX-VC-1-Time2: 0.000062415', 'REFINED-APPROX-VC-1-Time3: 0.000626084', 'APPROX-VC-2-Time4: 0.000028654', 'REFINED-APPROX-VC-2-Time5: 0.000693295']
[['CNF-SAT-VC:', '0,1,3,4'], ['APPROX-VC-1:', '0,1,3,4'], ['REFINED-APPROX-VC-1:', '0,1,3,4'], ['APPROX-VC-2:', '0,1,3,4,5,7'], ['REFINED-APPROX-VC-2:', '0,1,3,4'], ['CNF-SAT-VC-Time1:', '0.001720380'], ['APPROX-VC-1-Time2:', '0.000062415'], ['REFINED-APPROX-VC-1-Time3:', '0.000626084'], ['APPROX-VC-2-Time4:', '0.000028654'], ['REFINED-APPROX-VC-2-Time5:', '0.000693295']]

>>>>




CNF-SAT-VC: 0,1,4,6
APPROX-VC-1: 0,1,4,6
REFINED-APPROX-VC-1: 0,1,4,6
APPROX-VC-2: 0,1,2,3,4,6
REFINED-APPROX-VC-2: 0,1,4,6
CNF-SAT-VC-Time1: 0.002638190
APPROX-VC-1-Time2: 0.000057151
REFINED-APPROX-VC-1-Time3: 0.000510084
APPROX-VC-2-Time4: 0.000100984
REFINED-APPROX-VC-2-Time5: 0.000593680

8 - 8
['CNF-SAT-VC: 0,1,4,6', 'APPROX-VC-1: 0,1,4,6', 'REFINED-APPROX-VC-1: 0,1,4,6', 'APPROX-VC-2: 0,1,2,3,4,6', 'REFINED-APPROX-VC-2: 0,1,4,6', 'CNF-SAT-VC-Time1: 0.002638190', 'APPROX-VC-1-Time2: 0.000057151', 'REFINED-APPROX-VC-1-Time3: 0.000510084', 'APPROX-VC-2-Time4: 0.000100984', 'REFINED-APPROX-VC-2-Time5: 0.000593680']
[['CNF-SAT-VC:', '0,1,4,6'], ['APPROX-VC-1:', '0,1,4,6'], ['REFINED-APPROX-VC-1:', '0,1,4,6'], ['APPROX-VC-2:', '0,1,2,3,4,6'], ['REFINED-APPROX-VC-2:', '0,1,4,6'], ['CNF-SAT-VC-Time1:', '0.002638190'], ['APPROX-VC-1-Time2:', '0.000057151'], ['REFINED-APPROX-VC-1-Time3:', '0.000510084'], ['APPROX-VC-2-Time4:', '0.000100984'], ['REFINED-APPROX-VC-2-Time5:', '0.000593680']]

>>>>




CNF-SAT-VC: 0,1,2,3
APPROX-VC-1: 0,1,2,3
REFINED-APPROX-VC-1: 0,1,2,3
APPROX-VC-2: 0,1,2,4,6,7
REFINED-APPROX-VC-2: 0,1,2,6
CNF-SAT-VC-Time1: 0.001946821
APPROX-VC-1-Time2: 0.000154800
REFINED-APPROX-VC-1-Time3: 0.000502988
APPROX-VC-2-Time4: 0.000030057
REFINED-APPROX-VC-2-Time5: 0.000600116

8 - 9
['CNF-SAT-VC: 0,1,2,3', 'APPROX-VC-1: 0,1,2,3', 'REFINED-APPROX-VC-1: 0,1,2,3', 'APPROX-VC-2: 0,1,2,4,6,7', 'REFINED-APPROX-VC-2: 0,1,2,6', 'CNF-SAT-VC-Time1: 0.001946821', 'APPROX-VC-1-Time2: 0.000154800', 'REFINED-APPROX-VC-1-Time3: 0.000502988', 'APPROX-VC-2-Time4: 0.000030057', 'REFINED-APPROX-VC-2-Time5: 0.000600116']
[['CNF-SAT-VC:', '0,1,2,3'], ['APPROX-VC-1:', '0,1,2,3'], ['REFINED-APPROX-VC-1:', '0,1,2,3'], ['APPROX-VC-2:', '0,1,2,4,6,7'], ['REFINED-APPROX-VC-2:', '0,1,2,6'], ['CNF-SAT-VC-Time1:', '0.001946821'], ['APPROX-VC-1-Time2:', '0.000154800'], ['REFINED-APPROX-VC-1-Time3:', '0.000502988'], ['APPROX-VC-2-Time4:', '0.000030057'], ['REFINED-APPROX-VC-2-Time5:', '0.000600116']]

>>>>




CNF-SAT-VC: 0,1,2,8
APPROX-VC-1: 0,1,2,8
REFINED-APPROX-VC-1: 0,1,2,8
APPROX-VC-2: 0,1,2,3,5,8
REFINED-APPROX-VC-2: 0,1,2,8
CNF-SAT-VC-Time1: 0.003026465
APPROX-VC-1-Time2: 0.000063215
REFINED-APPROX-VC-1-Time3: 0.000609203
APPROX-VC-2-Time4: 0.000027283
REFINED-APPROX-VC-2-Time5: 0.000699554

9 - 0
['CNF-SAT-VC: 0,1,2,8', 'APPROX-VC-1: 0,1,2,8', 'REFINED-APPROX-VC-1: 0,1,2,8', 'APPROX-VC-2: 0,1,2,3,5,8', 'REFINED-APPROX-VC-2: 0,1,2,8', 'CNF-SAT-VC-Time1: 0.003026465', 'APPROX-VC-1-Time2: 0.000063215', 'REFINED-APPROX-VC-1-Time3: 0.000609203', 'APPROX-VC-2-Time4: 0.000027283', 'REFINED-APPROX-VC-2-Time5: 0.000699554']
[['CNF-SAT-VC:', '0,1,2,8'], ['APPROX-VC-1:', '0,1,2,8'], ['REFINED-APPROX-VC-1:', '0,1,2,8'], ['APPROX-VC-2:', '0,1,2,3,5,8'], ['REFINED-APPROX-VC-2:', '0,1,2,8'], ['CNF-SAT-VC-Time1:', '0.003026465'], ['APPROX-VC-1-Time2:', '0.000063215'], ['REFINED-APPROX-VC-1-Time3:', '0.000609203'], ['APPROX-VC-2-Time4:', '0.000027283'], ['REFINED-APPROX-VC-2-Time5:', '0.000699554']]

>>>>





CNF-SAT-VC: 0,1,2,3,4
APPROX-VC-1: 0,1,2,3,7
REFINED-APPROX-VC-1: 0,1,2,3,7
APPROX-VC-2: 0,1,2,3,4,6,7,8
REFINED-APPROX-VC-2: 0,1,2,3,4
CNF-SAT-VC-Time1: 0.008933376
APPROX-VC-1-Time2: 0.000075081
REFINED-APPROX-VC-1-Time3: 0.000607937
APPROX-VC-2-Time4: 0.000033362
REFINED-APPROX-VC-2-Time5: 0.000635147

9 - 1
['CNF-SAT-VC: 0,1,2,3,4', 'APPROX-VC-1: 0,1,2,3,7', 'REFINED-APPROX-VC-1: 0,1,2,3,7', 'APPROX-VC-2: 0,1,2,3,4,6,7,8', 'REFINED-APPROX-VC-2: 0,1,2,3,4', 'CNF-SAT-VC-Time1: 0.008933376', 'APPROX-VC-1-Time2: 0.000075081', 'REFINED-APPROX-VC-1-Time3: 0.000607937', 'APPROX-VC-2-Time4: 0.000033362', 'REFINED-APPROX-VC-2-Time5: 0.000635147']
[['CNF-SAT-VC:', '0,1,2,3,4'], ['APPROX-VC-1:', '0,1,2,3,7'], ['REFINED-APPROX-VC-1:', '0,1,2,3,7'], ['APPROX-VC-2:', '0,1,2,3,4,6,7,8'], ['REFINED-APPROX-VC-2:', '0,1,2,3,4'], ['CNF-SAT-VC-Time1:', '0.008933376'], ['APPROX-VC-1-Time2:', '0.000075081'], ['REFINED-APPROX-VC-1-Time3:', '0.000607937'], ['APPROX-VC-2-Time4:', '0.000033362'], ['REFINED-APPROX-VC-2-Time5:', '0.000635147']]

>>>>




CNF-SAT-VC: 0,1,4,5
APPROX-VC-1: 0,1,4,5
REFINED-APPROX-VC-1: 0,1,4,5
APPROX-VC-2: 0,1,2,3,4,5,6,7
REFINED-APPROX-VC-2: 0,1,4,5
CNF-SAT-VC-Time1: 0.001530703
APPROX-VC-1-Time2: 0.000025461
REFINED-APPROX-VC-1-Time3: 0.000628455
APPROX-VC-2-Time4: 0.000029732
REFINED-APPROX-VC-2-Time5: 0.000788597

9 - 2
['CNF-SAT-VC: 0,1,4,5', 'APPROX-VC-1: 0,1,4,5', 'REFINED-APPROX-VC-1: 0,1,4,5', 'APPROX-VC-2: 0,1,2,3,4,5,6,7', 'REFINED-APPROX-VC-2: 0,1,4,5', 'CNF-SAT-VC-Time1: 0.001530703', 'APPROX-VC-1-Time2: 0.000025461', 'REFINED-APPROX-VC-1-Time3: 0.000628455', 'APPROX-VC-2-Time4: 0.000029732', 'REFINED-APPROX-VC-2-Time5: 0.000788597']
[['CNF-SAT-VC:', '0,1,4,5'], ['APPROX-VC-1:', '0,1,4,5'], ['REFINED-APPROX-VC-1:', '0,1,4,5'], ['APPROX-VC-2:', '0,1,2,3,4,5,6,7'], ['REFINED-APPROX-VC-2:', '0,1,4,5'], ['CNF-SAT-VC-Time1:', '0.001530703'], ['APPROX-VC-1-Time2:', '0.000025461'], ['REFINED-APPROX-VC-1-Time3:', '0.000628455'], ['APPROX-VC-2-Time4:', '0.000029732'], ['REFINED-APPROX-VC-2-Time5:', '0.000788597']]

>>>>





CNF-SAT-VC: 0,1,2,4,5
APPROX-VC-1: 0,1,2,4,5
REFINED-APPROX-VC-1: 0,1,2,4,5
APPROX-VC-2: 0,1,2,4,5,6,7,8
REFINED-APPROX-VC-2: 0,1,2,4,5
CNF-SAT-VC-Time1: 0.008437408
APPROX-VC-1-Time2: 0.000064580
REFINED-APPROX-VC-1-Time3: 0.000679889
APPROX-VC-2-Time4: 0.000099562
REFINED-APPROX-VC-2-Time5: 0.000773950

9 - 3
['CNF-SAT-VC: 0,1,2,4,5', 'APPROX-VC-1: 0,1,2,4,5', 'REFINED-APPROX-VC-1: 0,1,2,4,5', 'APPROX-VC-2: 0,1,2,4,5,6,7,8', 'REFINED-APPROX-VC-2: 0,1,2,4,5', 'CNF-SAT-VC-Time1: 0.008437408', 'APPROX-VC-1-Time2: 0.000064580', 'REFINED-APPROX-VC-1-Time3: 0.000679889', 'APPROX-VC-2-Time4: 0.000099562', 'REFINED-APPROX-VC-2-Time5: 0.000773950']
[['CNF-SAT-VC:', '0,1,2,4,5'], ['APPROX-VC-1:', '0,1,2,4,5'], ['REFINED-APPROX-VC-1:', '0,1,2,4,5'], ['APPROX-VC-2:', '0,1,2,4,5,6,7,8'], ['REFINED-APPROX-VC-2:', '0,1,2,4,5'], ['CNF-SAT-VC-Time1:', '0.008437408'], ['APPROX-VC-1-Time2:', '0.000064580'], ['REFINED-APPROX-VC-1-Time3:', '0.000679889'], ['APPROX-VC-2-Time4:', '0.000099562'], ['REFINED-APPROX-VC-2-Time5:', '0.000773950']]

>>>>





CNF-SAT-VC: 0,1,3,4,5
APPROX-VC-1: 0,1,3,4,5
REFINED-APPROX-VC-1: 0,1,3,4,5
APPROX-VC-2: 0,1,3,5,6,8
REFINED-APPROX-VC-2: 0,1,3,5,8
CNF-SAT-VC-Time1: 0.008407803
APPROX-VC-1-Time2: 0.000109113
REFINED-APPROX-VC-1-Time3: 0.000699050
APPROX-VC-2-Time4: 0.000103084
REFINED-APPROX-VC-2-Time5: 0.000717583

9 - 4
['CNF-SAT-VC: 0,1,3,4,5', 'APPROX-VC-1: 0,1,3,4,5', 'REFINED-APPROX-VC-1: 0,1,3,4,5', 'APPROX-VC-2: 0,1,3,5,6,8', 'REFINED-APPROX-VC-2: 0,1,3,5,8', 'CNF-SAT-VC-Time1: 0.008407803', 'APPROX-VC-1-Time2: 0.000109113', 'REFINED-APPROX-VC-1-Time3: 0.000699050', 'APPROX-VC-2-Time4: 0.000103084', 'REFINED-APPROX-VC-2-Time5: 0.000717583']
[['CNF-SAT-VC:', '0,1,3,4,5'], ['APPROX-VC-1:', '0,1,3,4,5'], ['REFINED-APPROX-VC-1:', '0,1,3,4,5'], ['APPROX-VC-2:', '0,1,3,5,6,8'], ['REFINED-APPROX-VC-2:', '0,1,3,5,8'], ['CNF-SAT-VC-Time1:', '0.008407803'], ['APPROX-VC-1-Time2:', '0.000109113'], ['REFINED-APPROX-VC-1-Time3:', '0.000699050'], ['APPROX-VC-2-Time4:', '0.000103084'], ['REFINED-APPROX-VC-2-Time5:', '0.000717583']]

>>>>





CNF-SAT-VC: 0,1,2,3,4
APPROX-VC-1: 0,1,2,3,4
REFINED-APPROX-VC-1: 0,1,2,3,4
APPROX-VC-2: 0,1,2,3,4,5,6,7
REFINED-APPROX-VC-2: 0,1,2,3,4
CNF-SAT-VC-Time1: 0.010425266
APPROX-VC-1-Time2: 0.000140311
REFINED-APPROX-VC-1-Time3: 0.000543478
APPROX-VC-2-Time4: 0.000048714
REFINED-APPROX-VC-2-Time5: 0.000657251

9 - 5
['CNF-SAT-VC: 0,1,2,3,4', 'APPROX-VC-1: 0,1,2,3,4', 'REFINED-APPROX-VC-1: 0,1,2,3,4', 'APPROX-VC-2: 0,1,2,3,4,5,6,7', 'REFINED-APPROX-VC-2: 0,1,2,3,4', 'CNF-SAT-VC-Time1: 0.010425266', 'APPROX-VC-1-Time2: 0.000140311', 'REFINED-APPROX-VC-1-Time3: 0.000543478', 'APPROX-VC-2-Time4: 0.000048714', 'REFINED-APPROX-VC-2-Time5: 0.000657251']
[['CNF-SAT-VC:', '0,1,2,3,4'], ['APPROX-VC-1:', '0,1,2,3,4'], ['REFINED-APPROX-VC-1:', '0,1,2,3,4'], ['APPROX-VC-2:', '0,1,2,3,4,5,6,7'], ['REFINED-APPROX-VC-2:', '0,1,2,3,4'], ['CNF-SAT-VC-Time1:', '0.010425266'], ['APPROX-VC-1-Time2:', '0.000140311'], ['REFINED-APPROX-VC-1-Time3:', '0.000543478'], ['APPROX-VC-2-Time4:', '0.000048714'], ['REFINED-APPROX-VC-2-Time5:', '0.000657251']]

>>>>




CNF-SAT-VC: 0,1,2,3
APPROX-VC-1: 0,1,2,3
REFINED-APPROX-VC-1: 0,1,2,3
APPROX-VC-2: 0,1,2,3,5,6,7,8
REFINED-APPROX-VC-2: 0,1,2,3
CNF-SAT-VC-Time1: 0.002312464
APPROX-VC-1-Time2: 0.000076891
REFINED-APPROX-VC-1-Time3: 0.000580563
APPROX-VC-2-Time4: 0.000023035
REFINED-APPROX-VC-2-Time5: 0.000624823

9 - 6
['CNF-SAT-VC: 0,1,2,3', 'APPROX-VC-1: 0,1,2,3', 'REFINED-APPROX-VC-1: 0,1,2,3', 'APPROX-VC-2: 0,1,2,3,5,6,7,8', 'REFINED-APPROX-VC-2: 0,1,2,3', 'CNF-SAT-VC-Time1: 0.002312464', 'APPROX-VC-1-Time2: 0.000076891', 'REFINED-APPROX-VC-1-Time3: 0.000580563', 'APPROX-VC-2-Time4: 0.000023035', 'REFINED-APPROX-VC-2-Time5: 0.000624823']
[['CNF-SAT-VC:', '0,1,2,3'], ['APPROX-VC-1:', '0,1,2,3'], ['REFINED-APPROX-VC-1:', '0,1,2,3'], ['APPROX-VC-2:', '0,1,2,3,5,6,7,8'], ['REFINED-APPROX-VC-2:', '0,1,2,3'], ['CNF-SAT-VC-Time1:', '0.002312464'], ['APPROX-VC-1-Time2:', '0.000076891'], ['REFINED-APPROX-VC-1-Time3:', '0.000580563'], ['APPROX-VC-2-Time4:', '0.000023035'], ['REFINED-APPROX-VC-2-Time5:', '0.000624823']]

>>>>





CNF-SAT-VC: 0,1,2,3,5
APPROX-VC-1: 0,1,2,3,5
REFINED-APPROX-VC-1: 0,1,2,3,5
APPROX-VC-2: 0,2,3,4,5,8
REFINED-APPROX-VC-2: 0,2,3,4,5
CNF-SAT-VC-Time1: 0.010486490
APPROX-VC-1-Time2: 0.000053382
REFINED-APPROX-VC-1-Time3: 0.000528432
APPROX-VC-2-Time4: 0.000135476
REFINED-APPROX-VC-2-Time5: 0.000586869

9 - 7
['CNF-SAT-VC: 0,1,2,3,5', 'APPROX-VC-1: 0,1,2,3,5', 'REFINED-APPROX-VC-1: 0,1,2,3,5', 'APPROX-VC-2: 0,2,3,4,5,8', 'REFINED-APPROX-VC-2: 0,2,3,4,5', 'CNF-SAT-VC-Time1: 0.010486490', 'APPROX-VC-1-Time2: 0.000053382', 'REFINED-APPROX-VC-1-Time3: 0.000528432', 'APPROX-VC-2-Time4: 0.000135476', 'REFINED-APPROX-VC-2-Time5: 0.000586869']
[['CNF-SAT-VC:', '0,1,2,3,5'], ['APPROX-VC-1:', '0,1,2,3,5'], ['REFINED-APPROX-VC-1:', '0,1,2,3,5'], ['APPROX-VC-2:', '0,2,3,4,5,8'], ['REFINED-APPROX-VC-2:', '0,2,3,4,5'], ['CNF-SAT-VC-Time1:', '0.010486490'], ['APPROX-VC-1-Time2:', '0.000053382'], ['REFINED-APPROX-VC-1-Time3:', '0.000528432'], ['APPROX-VC-2-Time4:', '0.000135476'], ['REFINED-APPROX-VC-2-Time5:', '0.000586869']]

>>>>





CNF-SAT-VC: 0,1,2,3,7
APPROX-VC-1: 0,1,2,3,7
REFINED-APPROX-VC-1: 0,1,2,3,7
APPROX-VC-2: 0,1,2,4,5,6,7,8
REFINED-APPROX-VC-2: 0,1,2,4,7
CNF-SAT-VC-Time1: 0.006601248
APPROX-VC-1-Time2: 0.000108125
REFINED-APPROX-VC-1-Time3: 0.000664508
APPROX-VC-2-Time4: 0.000049718
REFINED-APPROX-VC-2-Time5: 0.000767989

9 - 8
['CNF-SAT-VC: 0,1,2,3,7', 'APPROX-VC-1: 0,1,2,3,7', 'REFINED-APPROX-VC-1: 0,1,2,3,7', 'APPROX-VC-2: 0,1,2,4,5,6,7,8', 'REFINED-APPROX-VC-2: 0,1,2,4,7', 'CNF-SAT-VC-Time1: 0.006601248', 'APPROX-VC-1-Time2: 0.000108125', 'REFINED-APPROX-VC-1-Time3: 0.000664508', 'APPROX-VC-2-Time4: 0.000049718', 'REFINED-APPROX-VC-2-Time5: 0.000767989']
[['CNF-SAT-VC:', '0,1,2,3,7'], ['APPROX-VC-1:', '0,1,2,3,7'], ['REFINED-APPROX-VC-1:', '0,1,2,3,7'], ['APPROX-VC-2:', '0,1,2,4,5,6,7,8'], ['REFINED-APPROX-VC-2:', '0,1,2,4,7'], ['CNF-SAT-VC-Time1:', '0.006601248'], ['APPROX-VC-1-Time2:', '0.000108125'], ['REFINED-APPROX-VC-1-Time3:', '0.000664508'], ['APPROX-VC-2-Time4:', '0.000049718'], ['REFINED-APPROX-VC-2-Time5:', '0.000767989']]

>>>>





CNF-SAT-VC: 0,1,2,3,5
APPROX-VC-1: 0,1,2,3,5
REFINED-APPROX-VC-1: 0,1,2,3,5
APPROX-VC-2: 0,1,2,3,7,8
REFINED-APPROX-VC-2: 0,1,2,3,8
CNF-SAT-VC-Time1: 0.008751066
APPROX-VC-1-Time2: 0.000145297
REFINED-APPROX-VC-1-Time3: 0.000554165
APPROX-VC-2-Time4: 0.000085185
REFINED-APPROX-VC-2-Time5: 0.000650222

9 - 9
['CNF-SAT-VC: 0,1,2,3,5', 'APPROX-VC-1: 0,1,2,3,5', 'REFINED-APPROX-VC-1: 0,1,2,3,5', 'APPROX-VC-2: 0,1,2,3,7,8', 'REFINED-APPROX-VC-2: 0,1,2,3,8', 'CNF-SAT-VC-Time1: 0.008751066', 'APPROX-VC-1-Time2: 0.000145297', 'REFINED-APPROX-VC-1-Time3: 0.000554165', 'APPROX-VC-2-Time4: 0.000085185', 'REFINED-APPROX-VC-2-Time5: 0.000650222']
[['CNF-SAT-VC:', '0,1,2,3,5'], ['APPROX-VC-1:', '0,1,2,3,5'], ['REFINED-APPROX-VC-1:', '0,1,2,3,5'], ['APPROX-VC-2:', '0,1,2,3,7,8'], ['REFINED-APPROX-VC-2:', '0,1,2,3,8'], ['CNF-SAT-VC-Time1:', '0.008751066'], ['APPROX-VC-1-Time2:', '0.000145297'], ['REFINED-APPROX-VC-1-Time3:', '0.000554165'], ['APPROX-VC-2-Time4:', '0.000085185'], ['REFINED-APPROX-VC-2-Time5:', '0.000650222']]

>>>>




CNF-SAT-VC: 0,2,3,8
APPROX-VC-1: 0,2,3,8
REFINED-APPROX-VC-1: 0,2,3,8
APPROX-VC-2: 0,2,3,5,7,9
REFINED-APPROX-VC-2: 0,2,3,9
CNF-SAT-VC-Time1: 0.002022845
APPROX-VC-1-Time2: 0.000042598
REFINED-APPROX-VC-1-Time3: 0.000523416
APPROX-VC-2-Time4: 0.000028869
REFINED-APPROX-VC-2-Time5: 0.000628348

10 - 0
['CNF-SAT-VC: 0,2,3,8', 'APPROX-VC-1: 0,2,3,8', 'REFINED-APPROX-VC-1: 0,2,3,8', 'APPROX-VC-2: 0,2,3,5,7,9', 'REFINED-APPROX-VC-2: 0,2,3,9', 'CNF-SAT-VC-Time1: 0.002022845', 'APPROX-VC-1-Time2: 0.000042598', 'REFINED-APPROX-VC-1-Time3: 0.000523416', 'APPROX-VC-2-Time4: 0.000028869', 'REFINED-APPROX-VC-2-Time5: 0.000628348']
[['CNF-SAT-VC:', '0,2,3,8'], ['APPROX-VC-1:', '0,2,3,8'], ['REFINED-APPROX-VC-1:', '0,2,3,8'], ['APPROX-VC-2:', '0,2,3,5,7,9'], ['REFINED-APPROX-VC-2:', '0,2,3,9'], ['CNF-SAT-VC-Time1:', '0.002022845'], ['APPROX-VC-1-Time2:', '0.000042598'], ['REFINED-APPROX-VC-1-Time3:', '0.000523416'], ['APPROX-VC-2-Time4:', '0.000028869'], ['REFINED-APPROX-VC-2-Time5:', '0.000628348']]

>>>>





CNF-SAT-VC: 1,3,5,6,8
APPROX-VC-1: 0,1,2,3,8
REFINED-APPROX-VC-1: 0,1,2,3,8
APPROX-VC-2: 0,1,2,3,4,5,8,9
REFINED-APPROX-VC-2: 0,1,2,3,4,5
CNF-SAT-VC-Time1: 0.015761865
APPROX-VC-1-Time2: 0.000024213
REFINED-APPROX-VC-1-Time3: 0.000597127
APPROX-VC-2-Time4: 0.000075965
REFINED-APPROX-VC-2-Time5: 0.000701827

10 - 1
['CNF-SAT-VC: 1,3,5,6,8', 'APPROX-VC-1: 0,1,2,3,8', 'REFINED-APPROX-VC-1: 0,1,2,3,8', 'APPROX-VC-2: 0,1,2,3,4,5,8,9', 'REFINED-APPROX-VC-2: 0,1,2,3,4,5', 'CNF-SAT-VC-Time1: 0.015761865', 'APPROX-VC-1-Time2: 0.000024213', 'REFINED-APPROX-VC-1-Time3: 0.000597127', 'APPROX-VC-2-Time4: 0.000075965', 'REFINED-APPROX-VC-2-Time5: 0.000701827']
[['CNF-SAT-VC:', '1,3,5,6,8'], ['APPROX-VC-1:', '0,1,2,3,8'], ['REFINED-APPROX-VC-1:', '0,1,2,3,8'], ['APPROX-VC-2:', '0,1,2,3,4,5,8,9'], ['REFINED-APPROX-VC-2:', '0,1,2,3,4,5'], ['CNF-SAT-VC-Time1:', '0.015761865'], ['APPROX-VC-1-Time2:', '0.000024213'], ['REFINED-APPROX-VC-1-Time3:', '0.000597127'], ['APPROX-VC-2-Time4:', '0.000075965'], ['REFINED-APPROX-VC-2-Time5:', '0.000701827']]

>>>>





CNF-SAT-VC: 2,4,7,8,9
APPROX-VC-1: 0,1,2,3,4,5
REFINED-APPROX-VC-1: 0,1,2,3,4,5
APPROX-VC-2: 0,1,2,4,5,7,8,9
REFINED-APPROX-VC-2: 0,1,2,4,5,7
CNF-SAT-VC-Time1: 0.020478935
APPROX-VC-1-Time2: 0.000122963
REFINED-APPROX-VC-1-Time3: 0.000550433
APPROX-VC-2-Time4: 0.000047904
REFINED-APPROX-VC-2-Time5: 0.000692190

10 - 2
['CNF-SAT-VC: 2,4,7,8,9', 'APPROX-VC-1: 0,1,2,3,4,5', 'REFINED-APPROX-VC-1: 0,1,2,3,4,5', 'APPROX-VC-2: 0,1,2,4,5,7,8,9', 'REFINED-APPROX-VC-2: 0,1,2,4,5,7', 'CNF-SAT-VC-Time1: 0.020478935', 'APPROX-VC-1-Time2: 0.000122963', 'REFINED-APPROX-VC-1-Time3: 0.000550433', 'APPROX-VC-2-Time4: 0.000047904', 'REFINED-APPROX-VC-2-Time5: 0.000692190']
[['CNF-SAT-VC:', '2,4,7,8,9'], ['APPROX-VC-1:', '0,1,2,3,4,5'], ['REFINED-APPROX-VC-1:', '0,1,2,3,4,5'], ['APPROX-VC-2:', '0,1,2,4,5,7,8,9'], ['REFINED-APPROX-VC-2:', '0,1,2,4,5,7'], ['CNF-SAT-VC-Time1:', '0.020478935'], ['APPROX-VC-1-Time2:', '0.000122963'], ['REFINED-APPROX-VC-1-Time3:', '0.000550433'], ['APPROX-VC-2-Time4:', '0.000047904'], ['REFINED-APPROX-VC-2-Time5:', '0.000692190']]

>>>>





CNF-SAT-VC: 0,1,3,4,5
APPROX-VC-1: 0,1,3,4,5
REFINED-APPROX-VC-1: 0,1,3,4,5
APPROX-VC-2: 0,1,2,3,4,5,7,8
REFINED-APPROX-VC-2: 0,1,3,4,5
CNF-SAT-VC-Time1: 0.007761926
APPROX-VC-1-Time2: 0.000114605
REFINED-APPROX-VC-1-Time3: 0.000581220
APPROX-VC-2-Time4: 0.000099227
REFINED-APPROX-VC-2-Time5: 0.000568711

10 - 3
['CNF-SAT-VC: 0,1,3,4,5', 'APPROX-VC-1: 0,1,3,4,5', 'REFINED-APPROX-VC-1: 0,1,3,4,5', 'APPROX-VC-2: 0,1,2,3,4,5,7,8', 'REFINED-APPROX-VC-2: 0,1,3,4,5', 'CNF-SAT-VC-Time1: 0.007761926', 'APPROX-VC-1-Time2: 0.000114605', 'REFINED-APPROX-VC-1-Time3: 0.000581220', 'APPROX-VC-2-Time4: 0.000099227', 'REFINED-APPROX-VC-2-Time5: 0.000568711']
[['CNF-SAT-VC:', '0,1,3,4,5'], ['APPROX-VC-1:', '0,1,3,4,5'], ['REFINED-APPROX-VC-1:', '0,1,3,4,5'], ['APPROX-VC-2:', '0,1,2,3,4,5,7,8'], ['REFINED-APPROX-VC-2:', '0,1,3,4,5'], ['CNF-SAT-VC-Time1:', '0.007761926'], ['APPROX-VC-1-Time2:', '0.000114605'], ['REFINED-APPROX-VC-1-Time3:', '0.000581220'], ['APPROX-VC-2-Time4:', '0.000099227'], ['REFINED-APPROX-VC-2-Time5:', '0.000568711']]

>>>>






CNF-SAT-VC: 0,1,2,3,4,7
APPROX-VC-1: 0,1,2,3,4,7
REFINED-APPROX-VC-1: 0,1,2,3,4,7
APPROX-VC-2: 0,1,2,3,4,5,6,7,8,9
REFINED-APPROX-VC-2: 0,1,2,3,4,7
CNF-SAT-VC-Time1: 0.043872645
APPROX-VC-1-Time2: 0.000050333
REFINED-APPROX-VC-1-Time3: 0.000578616
APPROX-VC-2-Time4: 0.000095846
REFINED-APPROX-VC-2-Time5: 0.000790515

10 - 4
['CNF-SAT-VC: 0,1,2,3,4,7', 'APPROX-VC-1: 0,1,2,3,4,7', 'REFINED-APPROX-VC-1: 0,1,2,3,4,7', 'APPROX-VC-2: 0,1,2,3,4,5,6,7,8,9', 'REFINED-APPROX-VC-2: 0,1,2,3,4,7', 'CNF-SAT-VC-Time1: 0.043872645', 'APPROX-VC-1-Time2: 0.000050333', 'REFINED-APPROX-VC-1-Time3: 0.000578616', 'APPROX-VC-2-Time4: 0.000095846', 'REFINED-APPROX-VC-2-Time5: 0.000790515']
[['CNF-SAT-VC:', '0,1,2,3,4,7'], ['APPROX-VC-1:', '0,1,2,3,4,7'], ['REFINED-APPROX-VC-1:', '0,1,2,3,4,7'], ['APPROX-VC-2:', '0,1,2,3,4,5,6,7,8,9'], ['REFINED-APPROX-VC-2:', '0,1,2,3,4,7'], ['CNF-SAT-VC-Time1:', '0.043872645'], ['APPROX-VC-1-Time2:', '0.000050333'], ['REFINED-APPROX-VC-1-Time3:', '0.000578616'], ['APPROX-VC-2-Time4:', '0.000095846'], ['REFINED-APPROX-VC-2-Time5:', '0.000790515']]

>>>>




CNF-SAT-VC: 0,1,4,8
APPROX-VC-1: 0,1,4,8
REFINED-APPROX-VC-1: 0,1,4,8
APPROX-VC-2: 0,1,2,3,4,5,6,8
REFINED-APPROX-VC-2: 0,1,2,4,6
CNF-SAT-VC-Time1: 0.003574018
APPROX-VC-1-Time2: 0.000075995
REFINED-APPROX-VC-1-Time3: 0.000216275
APPROX-VC-2-Time4: 0.000055080
REFINED-APPROX-VC-2-Time5: 0.000654099

10 - 5
['CNF-SAT-VC: 0,1,4,8', 'APPROX-VC-1: 0,1,4,8', 'REFINED-APPROX-VC-1: 0,1,4,8', 'APPROX-VC-2: 0,1,2,3,4,5,6,8', 'REFINED-APPROX-VC-2: 0,1,2,4,6', 'CNF-SAT-VC-Time1: 0.003574018', 'APPROX-VC-1-Time2: 0.000075995', 'REFINED-APPROX-VC-1-Time3: 0.000216275', 'APPROX-VC-2-Time4: 0.000055080', 'REFINED-APPROX-VC-2-Time5: 0.000654099']
[['CNF-SAT-VC:', '0,1,4,8'], ['APPROX-VC-1:', '0,1,4,8'], ['REFINED-APPROX-VC-1:', '0,1,4,8'], ['APPROX-VC-2:', '0,1,2,3,4,5,6,8'], ['REFINED-APPROX-VC-2:', '0,1,2,4,6'], ['CNF-SAT-VC-Time1:', '0.003574018'], ['APPROX-VC-1-Time2:', '0.000075995'], ['REFINED-APPROX-VC-1-Time3:', '0.000216275'], ['APPROX-VC-2-Time4:', '0.000055080'], ['REFINED-APPROX-VC-2-Time5:', '0.000654099']]

>>>>





CNF-SAT-VC: 0,1,3,4,7
APPROX-VC-1: 0,1,3,4,7
REFINED-APPROX-VC-1: 0,1,3,4,7
APPROX-VC-2: 0,1,4,5,6,7,8,9
REFINED-APPROX-VC-2: 0,1,4,7,8
CNF-SAT-VC-Time1: 0.014726246
APPROX-VC-1-Time2: 0.000072195
REFINED-APPROX-VC-1-Time3: 0.000655230
APPROX-VC-2-Time4: 0.000018112
REFINED-APPROX-VC-2-Time5: 0.000790863

10 - 6
['CNF-SAT-VC: 0,1,3,4,7', 'APPROX-VC-1: 0,1,3,4,7', 'REFINED-APPROX-VC-1: 0,1,3,4,7', 'APPROX-VC-2: 0,1,4,5,6,7,8,9', 'REFINED-APPROX-VC-2: 0,1,4,7,8', 'CNF-SAT-VC-Time1: 0.014726246', 'APPROX-VC-1-Time2: 0.000072195', 'REFINED-APPROX-VC-1-Time3: 0.000655230', 'APPROX-VC-2-Time4: 0.000018112', 'REFINED-APPROX-VC-2-Time5: 0.000790863']
[['CNF-SAT-VC:', '0,1,3,4,7'], ['APPROX-VC-1:', '0,1,3,4,7'], ['REFINED-APPROX-VC-1:', '0,1,3,4,7'], ['APPROX-VC-2:', '0,1,4,5,6,7,8,9'], ['REFINED-APPROX-VC-2:', '0,1,4,7,8'], ['CNF-SAT-VC-Time1:', '0.014726246'], ['APPROX-VC-1-Time2:', '0.000072195'], ['REFINED-APPROX-VC-1-Time3:', '0.000655230'], ['APPROX-VC-2-Time4:', '0.000018112'], ['REFINED-APPROX-VC-2-Time5:', '0.000790863']]

>>>>






CNF-SAT-VC: 0,1,2,3,5,6
APPROX-VC-1: 0,1,2,3,5,6
REFINED-APPROX-VC-1: 0,1,2,3,5,6
APPROX-VC-2: 0,1,2,3,4,6,8,9
REFINED-APPROX-VC-2: 0,1,2,3,6,8
CNF-SAT-VC-Time1: 0.046494469
APPROX-VC-1-Time2: 0.000085773
REFINED-APPROX-VC-1-Time3: 0.000593117
APPROX-VC-2-Time4: 0.000028977
REFINED-APPROX-VC-2-Time5: 0.000759148

10 - 7
['CNF-SAT-VC: 0,1,2,3,5,6', 'APPROX-VC-1: 0,1,2,3,5,6', 'REFINED-APPROX-VC-1: 0,1,2,3,5,6', 'APPROX-VC-2: 0,1,2,3,4,6,8,9', 'REFINED-APPROX-VC-2: 0,1,2,3,6,8', 'CNF-SAT-VC-Time1: 0.046494469', 'APPROX-VC-1-Time2: 0.000085773', 'REFINED-APPROX-VC-1-Time3: 0.000593117', 'APPROX-VC-2-Time4: 0.000028977', 'REFINED-APPROX-VC-2-Time5: 0.000759148']
[['CNF-SAT-VC:', '0,1,2,3,5,6'], ['APPROX-VC-1:', '0,1,2,3,5,6'], ['REFINED-APPROX-VC-1:', '0,1,2,3,5,6'], ['APPROX-VC-2:', '0,1,2,3,4,6,8,9'], ['REFINED-APPROX-VC-2:', '0,1,2,3,6,8'], ['CNF-SAT-VC-Time1:', '0.046494469'], ['APPROX-VC-1-Time2:', '0.000085773'], ['REFINED-APPROX-VC-1-Time3:', '0.000593117'], ['APPROX-VC-2-Time4:', '0.000028977'], ['REFINED-APPROX-VC-2-Time5:', '0.000759148']]

>>>>





CNF-SAT-VC: 1,2,3,5,7
APPROX-VC-1: 1,2,3,5,7
REFINED-APPROX-VC-1: 1,2,3,5,7
APPROX-VC-2: 1,2,3,4,5,6,7,9
REFINED-APPROX-VC-2: 1,2,3,5,7
CNF-SAT-VC-Time1: 0.006327135
APPROX-VC-1-Time2: 0.000009234
REFINED-APPROX-VC-1-Time3: 0.000189428
APPROX-VC-2-Time4: 0.000028653
REFINED-APPROX-VC-2-Time5: 0.000217450

10 - 8
['CNF-SAT-VC: 1,2,3,5,7', 'APPROX-VC-1: 1,2,3,5,7', 'REFINED-APPROX-VC-1: 1,2,3,5,7', 'APPROX-VC-2: 1,2,3,4,5,6,7,9', 'REFINED-APPROX-VC-2: 1,2,3,5,7', 'CNF-SAT-VC-Time1: 0.006327135', 'APPROX-VC-1-Time2: 0.000009234', 'REFINED-APPROX-VC-1-Time3: 0.000189428', 'APPROX-VC-2-Time4: 0.000028653', 'REFINED-APPROX-VC-2-Time5: 0.000217450']
[['CNF-SAT-VC:', '1,2,3,5,7'], ['APPROX-VC-1:', '1,2,3,5,7'], ['REFINED-APPROX-VC-1:', '1,2,3,5,7'], ['APPROX-VC-2:', '1,2,3,4,5,6,7,9'], ['REFINED-APPROX-VC-2:', '1,2,3,5,7'], ['CNF-SAT-VC-Time1:', '0.006327135'], ['APPROX-VC-1-Time2:', '0.000009234'], ['REFINED-APPROX-VC-1-Time3:', '0.000189428'], ['APPROX-VC-2-Time4:', '0.000028653'], ['REFINED-APPROX-VC-2-Time5:', '0.000217450']]

>>>>




CNF-SAT-VC: 0,2,3,4
APPROX-VC-1: 0,2,3,4
REFINED-APPROX-VC-1: 0,2,3,4
APPROX-VC-2: 0,2,3,4,6,7
REFINED-APPROX-VC-2: 0,2,3,4
CNF-SAT-VC-Time1: 0.002084162
APPROX-VC-1-Time2: 0.000043787
REFINED-APPROX-VC-1-Time3: 0.000511434
APPROX-VC-2-Time4: 0.000041647
REFINED-APPROX-VC-2-Time5: 0.000309516

10 - 9
['CNF-SAT-VC: 0,2,3,4', 'APPROX-VC-1: 0,2,3,4', 'REFINED-APPROX-VC-1: 0,2,3,4', 'APPROX-VC-2: 0,2,3,4,6,7', 'REFINED-APPROX-VC-2: 0,2,3,4', 'CNF-SAT-VC-Time1: 0.002084162', 'APPROX-VC-1-Time2: 0.000043787', 'REFINED-APPROX-VC-1-Time3: 0.000511434', 'APPROX-VC-2-Time4: 0.000041647', 'REFINED-APPROX-VC-2-Time5: 0.000309516']
[['CNF-SAT-VC:', '0,2,3,4'], ['APPROX-VC-1:', '0,2,3,4'], ['REFINED-APPROX-VC-1:', '0,2,3,4'], ['APPROX-VC-2:', '0,2,3,4,6,7'], ['REFINED-APPROX-VC-2:', '0,2,3,4'], ['CNF-SAT-VC-Time1:', '0.002084162'], ['APPROX-VC-1-Time2:', '0.000043787'], ['REFINED-APPROX-VC-1-Time3:', '0.000511434'], ['APPROX-VC-2-Time4:', '0.000041647'], ['REFINED-APPROX-VC-2-Time5:', '0.000309516']]

>>>>





CNF-SAT-VC: 0,1,6,9,10
APPROX-VC-1: 0,1,2,3,4,5
REFINED-APPROX-VC-1: 0,1,2,3,4,5
APPROX-VC-2: 0,1,2,3,4,6,9,10
REFINED-APPROX-VC-2: 0,1,6,9,10
CNF-SAT-VC-Time1: 0.029111556
APPROX-VC-1-Time2: 0.000028904
REFINED-APPROX-VC-1-Time3: 0.000657670
APPROX-VC-2-Time4: 0.000069157
REFINED-APPROX-VC-2-Time5: 0.000677440

11 - 0
['CNF-SAT-VC: 0,1,6,9,10', 'APPROX-VC-1: 0,1,2,3,4,5', 'REFINED-APPROX-VC-1: 0,1,2,3,4,5', 'APPROX-VC-2: 0,1,2,3,4,6,9,10', 'REFINED-APPROX-VC-2: 0,1,6,9,10', 'CNF-SAT-VC-Time1: 0.029111556', 'APPROX-VC-1-Time2: 0.000028904', 'REFINED-APPROX-VC-1-Time3: 0.000657670', 'APPROX-VC-2-Time4: 0.000069157', 'REFINED-APPROX-VC-2-Time5: 0.000677440']
[['CNF-SAT-VC:', '0,1,6,9,10'], ['APPROX-VC-1:', '0,1,2,3,4,5'], ['REFINED-APPROX-VC-1:', '0,1,2,3,4,5'], ['APPROX-VC-2:', '0,1,2,3,4,6,9,10'], ['REFINED-APPROX-VC-2:', '0,1,6,9,10'], ['CNF-SAT-VC-Time1:', '0.029111556'], ['APPROX-VC-1-Time2:', '0.000028904'], ['REFINED-APPROX-VC-1-Time3:', '0.000657670'], ['APPROX-VC-2-Time4:', '0.000069157'], ['REFINED-APPROX-VC-2-Time5:', '0.000677440']]

>>>>





CNF-SAT-VC: 1,3,4,5,6
APPROX-VC-1: 1,3,4,5,6
REFINED-APPROX-VC-1: 1,3,4,5,6
APPROX-VC-2: 1,2,3,4,5,6,7,8,9,10
REFINED-APPROX-VC-2: 1,3,4,5,6
CNF-SAT-VC-Time1: 0.004795315
APPROX-VC-1-Time2: 0.000043920
REFINED-APPROX-VC-1-Time3: 0.000227106
APPROX-VC-2-Time4: 0.000007768
REFINED-APPROX-VC-2-Time5: 0.000263147

11 - 1
['CNF-SAT-VC: 1,3,4,5,6', 'APPROX-VC-1: 1,3,4,5,6', 'REFINED-APPROX-VC-1: 1,3,4,5,6', 'APPROX-VC-2: 1,2,3,4,5,6,7,8,9,10', 'REFINED-APPROX-VC-2: 1,3,4,5,6', 'CNF-SAT-VC-Time1: 0.004795315', 'APPROX-VC-1-Time2: 0.000043920', 'REFINED-APPROX-VC-1-Time3: 0.000227106', 'APPROX-VC-2-Time4: 0.000007768', 'REFINED-APPROX-VC-2-Time5: 0.000263147']
[['CNF-SAT-VC:', '1,3,4,5,6'], ['APPROX-VC-1:', '1,3,4,5,6'], ['REFINED-APPROX-VC-1:', '1,3,4,5,6'], ['APPROX-VC-2:', '1,2,3,4,5,6,7,8,9,10'], ['REFINED-APPROX-VC-2:', '1,3,4,5,6'], ['CNF-SAT-VC-Time1:', '0.004795315'], ['APPROX-VC-1-Time2:', '0.000043920'], ['REFINED-APPROX-VC-1-Time3:', '0.000227106'], ['APPROX-VC-2-Time4:', '0.000007768'], ['REFINED-APPROX-VC-2-Time5:', '0.000263147']]

>>>>






CNF-SAT-VC: 0,1,3,4,5,6
APPROX-VC-1: 0,1,3,4,5,6
REFINED-APPROX-VC-1: 0,1,3,4,5,6
APPROX-VC-2: 0,1,3,4,5,6,7,10
REFINED-APPROX-VC-2: 0,1,3,4,5,6
CNF-SAT-VC-Time1: 0.048557676
APPROX-VC-1-Time2: 0.000008165
REFINED-APPROX-VC-1-Time3: 0.000213292
APPROX-VC-2-Time4: 0.000006836
REFINED-APPROX-VC-2-Time5: 0.000217394

11 - 2
['CNF-SAT-VC: 0,1,3,4,5,6', 'APPROX-VC-1: 0,1,3,4,5,6', 'REFINED-APPROX-VC-1: 0,1,3,4,5,6', 'APPROX-VC-2: 0,1,3,4,5,6,7,10', 'REFINED-APPROX-VC-2: 0,1,3,4,5,6', 'CNF-SAT-VC-Time1: 0.048557676', 'APPROX-VC-1-Time2: 0.000008165', 'REFINED-APPROX-VC-1-Time3: 0.000213292', 'APPROX-VC-2-Time4: 0.000006836', 'REFINED-APPROX-VC-2-Time5: 0.000217394']
[['CNF-SAT-VC:', '0,1,3,4,5,6'], ['APPROX-VC-1:', '0,1,3,4,5,6'], ['REFINED-APPROX-VC-1:', '0,1,3,4,5,6'], ['APPROX-VC-2:', '0,1,3,4,5,6,7,10'], ['REFINED-APPROX-VC-2:', '0,1,3,4,5,6'], ['CNF-SAT-VC-Time1:', '0.048557676'], ['APPROX-VC-1-Time2:', '0.000008165'], ['REFINED-APPROX-VC-1-Time3:', '0.000213292'], ['APPROX-VC-2-Time4:', '0.000006836'], ['REFINED-APPROX-VC-2-Time5:', '0.000217394']]

>>>>






CNF-SAT-VC: 0,1,2,4,6,10
APPROX-VC-1: 0,1,2,4,6,10
REFINED-APPROX-VC-1: 0,1,2,4,6,10
APPROX-VC-2: 0,1,2,3,4,6,7,8,9,10
REFINED-APPROX-VC-2: 0,1,2,4,6,10
CNF-SAT-VC-Time1: 0.165166456
APPROX-VC-1-Time2: 0.000056913
REFINED-APPROX-VC-1-Time3: 0.000565052
APPROX-VC-2-Time4: 0.000056335
REFINED-APPROX-VC-2-Time5: 0.000306632

11 - 3
['CNF-SAT-VC: 0,1,2,4,6,10', 'APPROX-VC-1: 0,1,2,4,6,10', 'REFINED-APPROX-VC-1: 0,1,2,4,6,10', 'APPROX-VC-2: 0,1,2,3,4,6,7,8,9,10', 'REFINED-APPROX-VC-2: 0,1,2,4,6,10', 'CNF-SAT-VC-Time1: 0.165166456', 'APPROX-VC-1-Time2: 0.000056913', 'REFINED-APPROX-VC-1-Time3: 0.000565052', 'APPROX-VC-2-Time4: 0.000056335', 'REFINED-APPROX-VC-2-Time5: 0.000306632']
[['CNF-SAT-VC:', '0,1,2,4,6,10'], ['APPROX-VC-1:', '0,1,2,4,6,10'], ['REFINED-APPROX-VC-1:', '0,1,2,4,6,10'], ['APPROX-VC-2:', '0,1,2,3,4,6,7,8,9,10'], ['REFINED-APPROX-VC-2:', '0,1,2,4,6,10'], ['CNF-SAT-VC-Time1:', '0.165166456'], ['APPROX-VC-1-Time2:', '0.000056913'], ['REFINED-APPROX-VC-1-Time3:', '0.000565052'], ['APPROX-VC-2-Time4:', '0.000056335'], ['REFINED-APPROX-VC-2-Time5:', '0.000306632']]

>>>>





CNF-SAT-VC: 0,1,2,4,5
APPROX-VC-1: 0,1,2,4,5
REFINED-APPROX-VC-1: 0,1,2,4,5
APPROX-VC-2: 0,1,2,4,5,6,7,8
REFINED-APPROX-VC-2: 0,1,2,4,5
CNF-SAT-VC-Time1: 0.004354906
APPROX-VC-1-Time2: 0.000020771
REFINED-APPROX-VC-1-Time3: 0.000526497
APPROX-VC-2-Time4: 0.000011140
REFINED-APPROX-VC-2-Time5: 0.000248999

11 - 4
['CNF-SAT-VC: 0,1,2,4,5', 'APPROX-VC-1: 0,1,2,4,5', 'REFINED-APPROX-VC-1: 0,1,2,4,5', 'APPROX-VC-2: 0,1,2,4,5,6,7,8', 'REFINED-APPROX-VC-2: 0,1,2,4,5', 'CNF-SAT-VC-Time1: 0.004354906', 'APPROX-VC-1-Time2: 0.000020771', 'REFINED-APPROX-VC-1-Time3: 0.000526497', 'APPROX-VC-2-Time4: 0.000011140', 'REFINED-APPROX-VC-2-Time5: 0.000248999']
[['CNF-SAT-VC:', '0,1,2,4,5'], ['APPROX-VC-1:', '0,1,2,4,5'], ['REFINED-APPROX-VC-1:', '0,1,2,4,5'], ['APPROX-VC-2:', '0,1,2,4,5,6,7,8'], ['REFINED-APPROX-VC-2:', '0,1,2,4,5'], ['CNF-SAT-VC-Time1:', '0.004354906'], ['APPROX-VC-1-Time2:', '0.000020771'], ['REFINED-APPROX-VC-1-Time3:', '0.000526497'], ['APPROX-VC-2-Time4:', '0.000011140'], ['REFINED-APPROX-VC-2-Time5:', '0.000248999']]

>>>>






CNF-SAT-VC: 0,1,2,3,4,7
APPROX-VC-1: 0,1,2,3,4,7
REFINED-APPROX-VC-1: 0,1,2,3,4,7
APPROX-VC-2: 0,1,2,3,4,5,6,7,8,9
REFINED-APPROX-VC-2: 0,1,2,3,4,7
CNF-SAT-VC-Time1: 0.026791857
APPROX-VC-1-Time2: 0.000043796
REFINED-APPROX-VC-1-Time3: 0.000204902
APPROX-VC-2-Time4: 0.000010337
REFINED-APPROX-VC-2-Time5: 0.000241407

11 - 5
['CNF-SAT-VC: 0,1,2,3,4,7', 'APPROX-VC-1: 0,1,2,3,4,7', 'REFINED-APPROX-VC-1: 0,1,2,3,4,7', 'APPROX-VC-2: 0,1,2,3,4,5,6,7,8,9', 'REFINED-APPROX-VC-2: 0,1,2,3,4,7', 'CNF-SAT-VC-Time1: 0.026791857', 'APPROX-VC-1-Time2: 0.000043796', 'REFINED-APPROX-VC-1-Time3: 0.000204902', 'APPROX-VC-2-Time4: 0.000010337', 'REFINED-APPROX-VC-2-Time5: 0.000241407']
[['CNF-SAT-VC:', '0,1,2,3,4,7'], ['APPROX-VC-1:', '0,1,2,3,4,7'], ['REFINED-APPROX-VC-1:', '0,1,2,3,4,7'], ['APPROX-VC-2:', '0,1,2,3,4,5,6,7,8,9'], ['REFINED-APPROX-VC-2:', '0,1,2,3,4,7'], ['CNF-SAT-VC-Time1:', '0.026791857'], ['APPROX-VC-1-Time2:', '0.000043796'], ['REFINED-APPROX-VC-1-Time3:', '0.000204902'], ['APPROX-VC-2-Time4:', '0.000010337'], ['REFINED-APPROX-VC-2-Time5:', '0.000241407']]

>>>>






CNF-SAT-VC: 0,1,2,3,4,5
APPROX-VC-1: 0,1,2,3,4,5
REFINED-APPROX-VC-1: 0,1,2,3,4,5
APPROX-VC-2: 0,1,2,3,4,5,6,7,8,9
REFINED-APPROX-VC-2: 0,1,2,3,4,5
CNF-SAT-VC-Time1: 0.042918287
APPROX-VC-1-Time2: 0.000009360
REFINED-APPROX-VC-1-Time3: 0.000264890
APPROX-VC-2-Time4: 0.000008741
REFINED-APPROX-VC-2-Time5: 0.000318017

11 - 6
['CNF-SAT-VC: 0,1,2,3,4,5', 'APPROX-VC-1: 0,1,2,3,4,5', 'REFINED-APPROX-VC-1: 0,1,2,3,4,5', 'APPROX-VC-2: 0,1,2,3,4,5,6,7,8,9', 'REFINED-APPROX-VC-2: 0,1,2,3,4,5', 'CNF-SAT-VC-Time1: 0.042918287', 'APPROX-VC-1-Time2: 0.000009360', 'REFINED-APPROX-VC-1-Time3: 0.000264890', 'APPROX-VC-2-Time4: 0.000008741', 'REFINED-APPROX-VC-2-Time5: 0.000318017']
[['CNF-SAT-VC:', '0,1,2,3,4,5'], ['APPROX-VC-1:', '0,1,2,3,4,5'], ['REFINED-APPROX-VC-1:', '0,1,2,3,4,5'], ['APPROX-VC-2:', '0,1,2,3,4,5,6,7,8,9'], ['REFINED-APPROX-VC-2:', '0,1,2,3,4,5'], ['CNF-SAT-VC-Time1:', '0.042918287'], ['APPROX-VC-1-Time2:', '0.000009360'], ['REFINED-APPROX-VC-1-Time3:', '0.000264890'], ['APPROX-VC-2-Time4:', '0.000008741'], ['REFINED-APPROX-VC-2-Time5:', '0.000318017']]

>>>>





CNF-SAT-VC: 0,2,3,4,10
APPROX-VC-1: 0,2,3,4,10
REFINED-APPROX-VC-1: 0,2,3,4,10
APPROX-VC-2: 0,1,2,3,4,5,6,7,9,10
REFINED-APPROX-VC-2: 0,1,2,4,5,7
CNF-SAT-VC-Time1: 0.006233689
APPROX-VC-1-Time2: 0.000014556
REFINED-APPROX-VC-1-Time3: 0.000183843
APPROX-VC-2-Time4: 0.000023644
REFINED-APPROX-VC-2-Time5: 0.000269891

11 - 7
['CNF-SAT-VC: 0,2,3,4,10', 'APPROX-VC-1: 0,2,3,4,10', 'REFINED-APPROX-VC-1: 0,2,3,4,10', 'APPROX-VC-2: 0,1,2,3,4,5,6,7,9,10', 'REFINED-APPROX-VC-2: 0,1,2,4,5,7', 'CNF-SAT-VC-Time1: 0.006233689', 'APPROX-VC-1-Time2: 0.000014556', 'REFINED-APPROX-VC-1-Time3: 0.000183843', 'APPROX-VC-2-Time4: 0.000023644', 'REFINED-APPROX-VC-2-Time5: 0.000269891']
[['CNF-SAT-VC:', '0,2,3,4,10'], ['APPROX-VC-1:', '0,2,3,4,10'], ['REFINED-APPROX-VC-1:', '0,2,3,4,10'], ['APPROX-VC-2:', '0,1,2,3,4,5,6,7,9,10'], ['REFINED-APPROX-VC-2:', '0,1,2,4,5,7'], ['CNF-SAT-VC-Time1:', '0.006233689'], ['APPROX-VC-1-Time2:', '0.000014556'], ['REFINED-APPROX-VC-1-Time3:', '0.000183843'], ['APPROX-VC-2-Time4:', '0.000023644'], ['REFINED-APPROX-VC-2-Time5:', '0.000269891']]

>>>>






CNF-SAT-VC: 0,1,2,3,4,5
APPROX-VC-1: 0,1,2,3,4,5
REFINED-APPROX-VC-1: 0,1,2,3,4,5
APPROX-VC-2: 1,2,3,4,5,7,8,9
REFINED-APPROX-VC-2: 1,2,4,5,8,9
CNF-SAT-VC-Time1: 0.042018069
APPROX-VC-1-Time2: 0.000021608
REFINED-APPROX-VC-1-Time3: 0.000209193
APPROX-VC-2-Time4: 0.000006547
REFINED-APPROX-VC-2-Time5: 0.000219832

11 - 8
['CNF-SAT-VC: 0,1,2,3,4,5', 'APPROX-VC-1: 0,1,2,3,4,5', 'REFINED-APPROX-VC-1: 0,1,2,3,4,5', 'APPROX-VC-2: 1,2,3,4,5,7,8,9', 'REFINED-APPROX-VC-2: 1,2,4,5,8,9', 'CNF-SAT-VC-Time1: 0.042018069', 'APPROX-VC-1-Time2: 0.000021608', 'REFINED-APPROX-VC-1-Time3: 0.000209193', 'APPROX-VC-2-Time4: 0.000006547', 'REFINED-APPROX-VC-2-Time5: 0.000219832']
[['CNF-SAT-VC:', '0,1,2,3,4,5'], ['APPROX-VC-1:', '0,1,2,3,4,5'], ['REFINED-APPROX-VC-1:', '0,1,2,3,4,5'], ['APPROX-VC-2:', '1,2,3,4,5,7,8,9'], ['REFINED-APPROX-VC-2:', '1,2,4,5,8,9'], ['CNF-SAT-VC-Time1:', '0.042018069'], ['APPROX-VC-1-Time2:', '0.000021608'], ['REFINED-APPROX-VC-1-Time3:', '0.000209193'], ['APPROX-VC-2-Time4:', '0.000006547'], ['REFINED-APPROX-VC-2-Time5:', '0.000219832']]

>>>>







CNF-SAT-VC: 0,1,2,3,4,5,6
APPROX-VC-1: 0,1,2,3,4,5,6
REFINED-APPROX-VC-1: 0,1,2,3,4,5,6
APPROX-VC-2: 0,1,2,3,4,5,6,7,9,10
REFINED-APPROX-VC-2: 0,1,2,3,4,5,6
CNF-SAT-VC-Time1: 0.188784900
APPROX-VC-1-Time2: 0.000051547
REFINED-APPROX-VC-1-Time3: 0.000808260
APPROX-VC-2-Time4: 0.000103186
REFINED-APPROX-VC-2-Time5: 0.000894749

11 - 9
['CNF-SAT-VC: 0,1,2,3,4,5,6', 'APPROX-VC-1: 0,1,2,3,4,5,6', 'REFINED-APPROX-VC-1: 0,1,2,3,4,5,6', 'APPROX-VC-2: 0,1,2,3,4,5,6,7,9,10', 'REFINED-APPROX-VC-2: 0,1,2,3,4,5,6', 'CNF-SAT-VC-Time1: 0.188784900', 'APPROX-VC-1-Time2: 0.000051547', 'REFINED-APPROX-VC-1-Time3: 0.000808260', 'APPROX-VC-2-Time4: 0.000103186', 'REFINED-APPROX-VC-2-Time5: 0.000894749']
[['CNF-SAT-VC:', '0,1,2,3,4,5,6'], ['APPROX-VC-1:', '0,1,2,3,4,5,6'], ['REFINED-APPROX-VC-1:', '0,1,2,3,4,5,6'], ['APPROX-VC-2:', '0,1,2,3,4,5,6,7,9,10'], ['REFINED-APPROX-VC-2:', '0,1,2,3,4,5,6'], ['CNF-SAT-VC-Time1:', '0.188784900'], ['APPROX-VC-1-Time2:', '0.000051547'], ['REFINED-APPROX-VC-1-Time3:', '0.000808260'], ['APPROX-VC-2-Time4:', '0.000103186'], ['REFINED-APPROX-VC-2-Time5:', '0.000894749']]

>>>>






CNF-SAT-VC: 1,2,3,4,6,9
APPROX-VC-1: 0,1,2,3,4,5,6
REFINED-APPROX-VC-1: 0,1,2,3,4,5,6
APPROX-VC-2: 0,1,2,3,4,5,6,8,10,11
REFINED-APPROX-VC-2: 0,1,2,3,4,5,6
CNF-SAT-VC-Time1: 0.065426957
APPROX-VC-1-Time2: 0.000010582
REFINED-APPROX-VC-1-Time3: 0.000208410
APPROX-VC-2-Time4: 0.000010943
REFINED-APPROX-VC-2-Time5: 0.000272476

12 - 0
['CNF-SAT-VC: 1,2,3,4,6,9', 'APPROX-VC-1: 0,1,2,3,4,5,6', 'REFINED-APPROX-VC-1: 0,1,2,3,4,5,6', 'APPROX-VC-2: 0,1,2,3,4,5,6,8,10,11', 'REFINED-APPROX-VC-2: 0,1,2,3,4,5,6', 'CNF-SAT-VC-Time1: 0.065426957', 'APPROX-VC-1-Time2: 0.000010582', 'REFINED-APPROX-VC-1-Time3: 0.000208410', 'APPROX-VC-2-Time4: 0.000010943', 'REFINED-APPROX-VC-2-Time5: 0.000272476']
[['CNF-SAT-VC:', '1,2,3,4,6,9'], ['APPROX-VC-1:', '0,1,2,3,4,5,6'], ['REFINED-APPROX-VC-1:', '0,1,2,3,4,5,6'], ['APPROX-VC-2:', '0,1,2,3,4,5,6,8,10,11'], ['REFINED-APPROX-VC-2:', '0,1,2,3,4,5,6'], ['CNF-SAT-VC-Time1:', '0.065426957'], ['APPROX-VC-1-Time2:', '0.000010582'], ['REFINED-APPROX-VC-1-Time3:', '0.000208410'], ['APPROX-VC-2-Time4:', '0.000010943'], ['REFINED-APPROX-VC-2-Time5:', '0.000272476']]

>>>>





CNF-SAT-VC: 0,1,4,5,7
APPROX-VC-1: 0,1,4,5,7
REFINED-APPROX-VC-1: 0,1,4,5,7
APPROX-VC-2: 0,1,4,5,6,7,8,10
REFINED-APPROX-VC-2: 0,1,4,5,7
CNF-SAT-VC-Time1: 0.004379231
APPROX-VC-1-Time2: 0.000086851
REFINED-APPROX-VC-1-Time3: 0.000719438
APPROX-VC-2-Time4: 0.000042908
REFINED-APPROX-VC-2-Time5: 0.000677140

12 - 1
['CNF-SAT-VC: 0,1,4,5,7', 'APPROX-VC-1: 0,1,4,5,7', 'REFINED-APPROX-VC-1: 0,1,4,5,7', 'APPROX-VC-2: 0,1,4,5,6,7,8,10', 'REFINED-APPROX-VC-2: 0,1,4,5,7', 'CNF-SAT-VC-Time1: 0.004379231', 'APPROX-VC-1-Time2: 0.000086851', 'REFINED-APPROX-VC-1-Time3: 0.000719438', 'APPROX-VC-2-Time4: 0.000042908', 'REFINED-APPROX-VC-2-Time5: 0.000677140']
[['CNF-SAT-VC:', '0,1,4,5,7'], ['APPROX-VC-1:', '0,1,4,5,7'], ['REFINED-APPROX-VC-1:', '0,1,4,5,7'], ['APPROX-VC-2:', '0,1,4,5,6,7,8,10'], ['REFINED-APPROX-VC-2:', '0,1,4,5,7'], ['CNF-SAT-VC-Time1:', '0.004379231'], ['APPROX-VC-1-Time2:', '0.000086851'], ['REFINED-APPROX-VC-1-Time3:', '0.000719438'], ['APPROX-VC-2-Time4:', '0.000042908'], ['REFINED-APPROX-VC-2-Time5:', '0.000677140']]

>>>>






CNF-SAT-VC: 0,1,3,5,8,9
APPROX-VC-1: 0,1,3,5,8,9
REFINED-APPROX-VC-1: 0,1,3,5,8,9
APPROX-VC-2: 0,1,3,5,7,8,9,10
REFINED-APPROX-VC-2: 0,1,3,5,8,9
CNF-SAT-VC-Time1: 0.040290963
APPROX-VC-1-Time2: 0.000032632
REFINED-APPROX-VC-1-Time3: 0.000210443
APPROX-VC-2-Time4: 0.000010029
REFINED-APPROX-VC-2-Time5: 0.000218684

12 - 2
['CNF-SAT-VC: 0,1,3,5,8,9', 'APPROX-VC-1: 0,1,3,5,8,9', 'REFINED-APPROX-VC-1: 0,1,3,5,8,9', 'APPROX-VC-2: 0,1,3,5,7,8,9,10', 'REFINED-APPROX-VC-2: 0,1,3,5,8,9', 'CNF-SAT-VC-Time1: 0.040290963', 'APPROX-VC-1-Time2: 0.000032632', 'REFINED-APPROX-VC-1-Time3: 0.000210443', 'APPROX-VC-2-Time4: 0.000010029', 'REFINED-APPROX-VC-2-Time5: 0.000218684']
[['CNF-SAT-VC:', '0,1,3,5,8,9'], ['APPROX-VC-1:', '0,1,3,5,8,9'], ['REFINED-APPROX-VC-1:', '0,1,3,5,8,9'], ['APPROX-VC-2:', '0,1,3,5,7,8,9,10'], ['REFINED-APPROX-VC-2:', '0,1,3,5,8,9'], ['CNF-SAT-VC-Time1:', '0.040290963'], ['APPROX-VC-1-Time2:', '0.000032632'], ['REFINED-APPROX-VC-1-Time3:', '0.000210443'], ['APPROX-VC-2-Time4:', '0.000010029'], ['REFINED-APPROX-VC-2-Time5:', '0.000218684']]

>>>>





CNF-SAT-VC: 0,1,3,5,8
APPROX-VC-1: 0,1,3,5,8
REFINED-APPROX-VC-1: 0,1,3,5,8
APPROX-VC-2: 0,1,2,3,5,6,7,8
REFINED-APPROX-VC-2: 0,1,3,5,8
CNF-SAT-VC-Time1: 0.006514818
APPROX-VC-1-Time2: 0.000009726
REFINED-APPROX-VC-1-Time3: 0.000186175
APPROX-VC-2-Time4: 0.000006374
REFINED-APPROX-VC-2-Time5: 0.000246823

12 - 3
['CNF-SAT-VC: 0,1,3,5,8', 'APPROX-VC-1: 0,1,3,5,8', 'REFINED-APPROX-VC-1: 0,1,3,5,8', 'APPROX-VC-2: 0,1,2,3,5,6,7,8', 'REFINED-APPROX-VC-2: 0,1,3,5,8', 'CNF-SAT-VC-Time1: 0.006514818', 'APPROX-VC-1-Time2: 0.000009726', 'REFINED-APPROX-VC-1-Time3: 0.000186175', 'APPROX-VC-2-Time4: 0.000006374', 'REFINED-APPROX-VC-2-Time5: 0.000246823']
[['CNF-SAT-VC:', '0,1,3,5,8'], ['APPROX-VC-1:', '0,1,3,5,8'], ['REFINED-APPROX-VC-1:', '0,1,3,5,8'], ['APPROX-VC-2:', '0,1,2,3,5,6,7,8'], ['REFINED-APPROX-VC-2:', '0,1,3,5,8'], ['CNF-SAT-VC-Time1:', '0.006514818'], ['APPROX-VC-1-Time2:', '0.000009726'], ['REFINED-APPROX-VC-1-Time3:', '0.000186175'], ['APPROX-VC-2-Time4:', '0.000006374'], ['REFINED-APPROX-VC-2-Time5:', '0.000246823']]

>>>>






CNF-SAT-VC: 0,1,2,3,4,5
APPROX-VC-1: 0,1,2,3,4,5
REFINED-APPROX-VC-1: 0,1,2,3,4,5
APPROX-VC-2: 0,1,2,3,4,5,6,9,10,11
REFINED-APPROX-VC-2: 0,1,2,3,4,5
CNF-SAT-VC-Time1: 0.050713867
APPROX-VC-1-Time2: 0.000049349
REFINED-APPROX-VC-1-Time3: 0.000229773
APPROX-VC-2-Time4: 0.000041692
REFINED-APPROX-VC-2-Time5: 0.000245431

12 - 4
['CNF-SAT-VC: 0,1,2,3,4,5', 'APPROX-VC-1: 0,1,2,3,4,5', 'REFINED-APPROX-VC-1: 0,1,2,3,4,5', 'APPROX-VC-2: 0,1,2,3,4,5,6,9,10,11', 'REFINED-APPROX-VC-2: 0,1,2,3,4,5', 'CNF-SAT-VC-Time1: 0.050713867', 'APPROX-VC-1-Time2: 0.000049349', 'REFINED-APPROX-VC-1-Time3: 0.000229773', 'APPROX-VC-2-Time4: 0.000041692', 'REFINED-APPROX-VC-2-Time5: 0.000245431']
[['CNF-SAT-VC:', '0,1,2,3,4,5'], ['APPROX-VC-1:', '0,1,2,3,4,5'], ['REFINED-APPROX-VC-1:', '0,1,2,3,4,5'], ['APPROX-VC-2:', '0,1,2,3,4,5,6,9,10,11'], ['REFINED-APPROX-VC-2:', '0,1,2,3,4,5'], ['CNF-SAT-VC-Time1:', '0.050713867'], ['APPROX-VC-1-Time2:', '0.000049349'], ['REFINED-APPROX-VC-1-Time3:', '0.000229773'], ['APPROX-VC-2-Time4:', '0.000041692'], ['REFINED-APPROX-VC-2-Time5:', '0.000245431']]

>>>>







CNF-SAT-VC: 0,1,3,4,5,7,9
APPROX-VC-1: 0,1,3,4,5,7,9
REFINED-APPROX-VC-1: 0,1,3,4,5,7,9
APPROX-VC-2: 0,1,2,3,4,5,6,7,8,9
REFINED-APPROX-VC-2: 0,1,2,3,4,5,6,9
CNF-SAT-VC-Time1: 0.315846208
APPROX-VC-1-Time2: 0.000010994
REFINED-APPROX-VC-1-Time3: 0.000260077
APPROX-VC-2-Time4: 0.000027081
REFINED-APPROX-VC-2-Time5: 0.000309376

12 - 5
['CNF-SAT-VC: 0,1,3,4,5,7,9', 'APPROX-VC-1: 0,1,3,4,5,7,9', 'REFINED-APPROX-VC-1: 0,1,3,4,5,7,9', 'APPROX-VC-2: 0,1,2,3,4,5,6,7,8,9', 'REFINED-APPROX-VC-2: 0,1,2,3,4,5,6,9', 'CNF-SAT-VC-Time1: 0.315846208', 'APPROX-VC-1-Time2: 0.000010994', 'REFINED-APPROX-VC-1-Time3: 0.000260077', 'APPROX-VC-2-Time4: 0.000027081', 'REFINED-APPROX-VC-2-Time5: 0.000309376']
[['CNF-SAT-VC:', '0,1,3,4,5,7,9'], ['APPROX-VC-1:', '0,1,3,4,5,7,9'], ['REFINED-APPROX-VC-1:', '0,1,3,4,5,7,9'], ['APPROX-VC-2:', '0,1,2,3,4,5,6,7,8,9'], ['REFINED-APPROX-VC-2:', '0,1,2,3,4,5,6,9'], ['CNF-SAT-VC-Time1:', '0.315846208'], ['APPROX-VC-1-Time2:', '0.000010994'], ['REFINED-APPROX-VC-1-Time3:', '0.000260077'], ['APPROX-VC-2-Time4:', '0.000027081'], ['REFINED-APPROX-VC-2-Time5:', '0.000309376']]

>>>>





CNF-SAT-VC: 0,1,2,5,8
APPROX-VC-1: 0,1,2,5,8
REFINED-APPROX-VC-1: 0,1,2,5,8
APPROX-VC-2: 0,1,2,3,5,7,8,9
REFINED-APPROX-VC-2: 0,1,2,5,8
CNF-SAT-VC-Time1: 0.005383506
APPROX-VC-1-Time2: 0.000028118
REFINED-APPROX-VC-1-Time3: 0.000509006
APPROX-VC-2-Time4: 0.000025784
REFINED-APPROX-VC-2-Time5: 0.000266040

12 - 6
['CNF-SAT-VC: 0,1,2,5,8', 'APPROX-VC-1: 0,1,2,5,8', 'REFINED-APPROX-VC-1: 0,1,2,5,8', 'APPROX-VC-2: 0,1,2,3,5,7,8,9', 'REFINED-APPROX-VC-2: 0,1,2,5,8', 'CNF-SAT-VC-Time1: 0.005383506', 'APPROX-VC-1-Time2: 0.000028118', 'REFINED-APPROX-VC-1-Time3: 0.000509006', 'APPROX-VC-2-Time4: 0.000025784', 'REFINED-APPROX-VC-2-Time5: 0.000266040']
[['CNF-SAT-VC:', '0,1,2,5,8'], ['APPROX-VC-1:', '0,1,2,5,8'], ['REFINED-APPROX-VC-1:', '0,1,2,5,8'], ['APPROX-VC-2:', '0,1,2,3,5,7,8,9'], ['REFINED-APPROX-VC-2:', '0,1,2,5,8'], ['CNF-SAT-VC-Time1:', '0.005383506'], ['APPROX-VC-1-Time2:', '0.000028118'], ['REFINED-APPROX-VC-1-Time3:', '0.000509006'], ['APPROX-VC-2-Time4:', '0.000025784'], ['REFINED-APPROX-VC-2-Time5:', '0.000266040']]

>>>>







CNF-SAT-VC: 0,1,2,3,4,5,7
APPROX-VC-1: 0,1,2,3,4,5,7
REFINED-APPROX-VC-1: 0,1,2,3,4,5,7
APPROX-VC-2: 0,1,2,3,4,5,6,7,9,11
REFINED-APPROX-VC-2: 0,1,2,3,4,5,7
CNF-SAT-VC-Time1: 0.551127994
APPROX-VC-1-Time2: 0.000013244
REFINED-APPROX-VC-1-Time3: 0.000216646
APPROX-VC-2-Time4: 0.000024145
REFINED-APPROX-VC-2-Time5: 0.000261662

12 - 7
['CNF-SAT-VC: 0,1,2,3,4,5,7', 'APPROX-VC-1: 0,1,2,3,4,5,7', 'REFINED-APPROX-VC-1: 0,1,2,3,4,5,7', 'APPROX-VC-2: 0,1,2,3,4,5,6,7,9,11', 'REFINED-APPROX-VC-2: 0,1,2,3,4,5,7', 'CNF-SAT-VC-Time1: 0.551127994', 'APPROX-VC-1-Time2: 0.000013244', 'REFINED-APPROX-VC-1-Time3: 0.000216646', 'APPROX-VC-2-Time4: 0.000024145', 'REFINED-APPROX-VC-2-Time5: 0.000261662']
[['CNF-SAT-VC:', '0,1,2,3,4,5,7'], ['APPROX-VC-1:', '0,1,2,3,4,5,7'], ['REFINED-APPROX-VC-1:', '0,1,2,3,4,5,7'], ['APPROX-VC-2:', '0,1,2,3,4,5,6,7,9,11'], ['REFINED-APPROX-VC-2:', '0,1,2,3,4,5,7'], ['CNF-SAT-VC-Time1:', '0.551127994'], ['APPROX-VC-1-Time2:', '0.000013244'], ['REFINED-APPROX-VC-1-Time3:', '0.000216646'], ['APPROX-VC-2-Time4:', '0.000024145'], ['REFINED-APPROX-VC-2-Time5:', '0.000261662']]

>>>>






CNF-SAT-VC: 0,1,3,4,5,8
APPROX-VC-1: 0,1,3,4,5,8
REFINED-APPROX-VC-1: 0,1,3,4,5,8
APPROX-VC-2: 0,1,2,3,4,5,6,7,8,10
REFINED-APPROX-VC-2: 0,1,3,4,5,8
CNF-SAT-VC-Time1: 0.040961300
APPROX-VC-1-Time2: 0.000024927
REFINED-APPROX-VC-1-Time3: 0.000247729
APPROX-VC-2-Time4: 0.000011584
REFINED-APPROX-VC-2-Time5: 0.000259636

12 - 8
['CNF-SAT-VC: 0,1,3,4,5,8', 'APPROX-VC-1: 0,1,3,4,5,8', 'REFINED-APPROX-VC-1: 0,1,3,4,5,8', 'APPROX-VC-2: 0,1,2,3,4,5,6,7,8,10', 'REFINED-APPROX-VC-2: 0,1,3,4,5,8', 'CNF-SAT-VC-Time1: 0.040961300', 'APPROX-VC-1-Time2: 0.000024927', 'REFINED-APPROX-VC-1-Time3: 0.000247729', 'APPROX-VC-2-Time4: 0.000011584', 'REFINED-APPROX-VC-2-Time5: 0.000259636']
[['CNF-SAT-VC:', '0,1,3,4,5,8'], ['APPROX-VC-1:', '0,1,3,4,5,8'], ['REFINED-APPROX-VC-1:', '0,1,3,4,5,8'], ['APPROX-VC-2:', '0,1,2,3,4,5,6,7,8,10'], ['REFINED-APPROX-VC-2:', '0,1,3,4,5,8'], ['CNF-SAT-VC-Time1:', '0.040961300'], ['APPROX-VC-1-Time2:', '0.000024927'], ['REFINED-APPROX-VC-1-Time3:', '0.000247729'], ['APPROX-VC-2-Time4:', '0.000011584'], ['REFINED-APPROX-VC-2-Time5:', '0.000259636']]

>>>>






CNF-SAT-VC: 2,4,5,8,9,10
APPROX-VC-1: 0,1,4,5,6,7,8
REFINED-APPROX-VC-1: 0,1,4,5,6,7,8
APPROX-VC-2: 0,1,2,4,5,6,7,8
REFINED-APPROX-VC-2: 0,1,4,5,6,7,8
CNF-SAT-VC-Time1: 0.059041940
APPROX-VC-1-Time2: 0.000041828
REFINED-APPROX-VC-1-Time3: 0.000588799
APPROX-VC-2-Time4: 0.000056999
REFINED-APPROX-VC-2-Time5: 0.000274629

12 - 9
['CNF-SAT-VC: 2,4,5,8,9,10', 'APPROX-VC-1: 0,1,4,5,6,7,8', 'REFINED-APPROX-VC-1: 0,1,4,5,6,7,8', 'APPROX-VC-2: 0,1,2,4,5,6,7,8', 'REFINED-APPROX-VC-2: 0,1,4,5,6,7,8', 'CNF-SAT-VC-Time1: 0.059041940', 'APPROX-VC-1-Time2: 0.000041828', 'REFINED-APPROX-VC-1-Time3: 0.000588799', 'APPROX-VC-2-Time4: 0.000056999', 'REFINED-APPROX-VC-2-Time5: 0.000274629']
[['CNF-SAT-VC:', '2,4,5,8,9,10'], ['APPROX-VC-1:', '0,1,4,5,6,7,8'], ['REFINED-APPROX-VC-1:', '0,1,4,5,6,7,8'], ['APPROX-VC-2:', '0,1,2,4,5,6,7,8'], ['REFINED-APPROX-VC-2:', '0,1,4,5,6,7,8'], ['CNF-SAT-VC-Time1:', '0.059041940'], ['APPROX-VC-1-Time2:', '0.000041828'], ['REFINED-APPROX-VC-1-Time3:', '0.000588799'], ['APPROX-VC-2-Time4:', '0.000056999'], ['REFINED-APPROX-VC-2-Time5:', '0.000274629']]

>>>>







CNF-SAT-VC: 1,2,4,6,7,8,9
APPROX-VC-1: 0,1,2,3,4,6,8,9
REFINED-APPROX-VC-1: 0,1,2,3,4,6,8,9
APPROX-VC-2: 0,1,2,3,4,7,8,10,11,12
REFINED-APPROX-VC-2: 0,1,2,3,4,8,11,12
CNF-SAT-VC-Time1: 0.325542402
APPROX-VC-1-Time2: 0.000014697
REFINED-APPROX-VC-1-Time3: 0.000599793
APPROX-VC-2-Time4: 0.000027678
REFINED-APPROX-VC-2-Time5: 0.000305108

13 - 0
['CNF-SAT-VC: 1,2,4,6,7,8,9', 'APPROX-VC-1: 0,1,2,3,4,6,8,9', 'REFINED-APPROX-VC-1: 0,1,2,3,4,6,8,9', 'APPROX-VC-2: 0,1,2,3,4,7,8,10,11,12', 'REFINED-APPROX-VC-2: 0,1,2,3,4,8,11,12', 'CNF-SAT-VC-Time1: 0.325542402', 'APPROX-VC-1-Time2: 0.000014697', 'REFINED-APPROX-VC-1-Time3: 0.000599793', 'APPROX-VC-2-Time4: 0.000027678', 'REFINED-APPROX-VC-2-Time5: 0.000305108']
[['CNF-SAT-VC:', '1,2,4,6,7,8,9'], ['APPROX-VC-1:', '0,1,2,3,4,6,8,9'], ['REFINED-APPROX-VC-1:', '0,1,2,3,4,6,8,9'], ['APPROX-VC-2:', '0,1,2,3,4,7,8,10,11,12'], ['REFINED-APPROX-VC-2:', '0,1,2,3,4,8,11,12'], ['CNF-SAT-VC-Time1:', '0.325542402'], ['APPROX-VC-1-Time2:', '0.000014697'], ['REFINED-APPROX-VC-1-Time3:', '0.000599793'], ['APPROX-VC-2-Time4:', '0.000027678'], ['REFINED-APPROX-VC-2-Time5:', '0.000305108']]

>>>>






CNF-SAT-VC: 0,1,2,3,6,8
APPROX-VC-1: 0,1,2,5,6,8
REFINED-APPROX-VC-1: 0,1,2,5,6,8
APPROX-VC-2: 0,1,2,3,5,6,7,8,11,12
REFINED-APPROX-VC-2: 0,1,2,3,6,8
CNF-SAT-VC-Time1: 0.071015160
APPROX-VC-1-Time2: 0.000085337
REFINED-APPROX-VC-1-Time3: 0.000641173
APPROX-VC-2-Time4: 0.000135591
REFINED-APPROX-VC-2-Time5: 0.000276451

13 - 1
['CNF-SAT-VC: 0,1,2,3,6,8', 'APPROX-VC-1: 0,1,2,5,6,8', 'REFINED-APPROX-VC-1: 0,1,2,5,6,8', 'APPROX-VC-2: 0,1,2,3,5,6,7,8,11,12', 'REFINED-APPROX-VC-2: 0,1,2,3,6,8', 'CNF-SAT-VC-Time1: 0.071015160', 'APPROX-VC-1-Time2: 0.000085337', 'REFINED-APPROX-VC-1-Time3: 0.000641173', 'APPROX-VC-2-Time4: 0.000135591', 'REFINED-APPROX-VC-2-Time5: 0.000276451']
[['CNF-SAT-VC:', '0,1,2,3,6,8'], ['APPROX-VC-1:', '0,1,2,5,6,8'], ['REFINED-APPROX-VC-1:', '0,1,2,5,6,8'], ['APPROX-VC-2:', '0,1,2,3,5,6,7,8,11,12'], ['REFINED-APPROX-VC-2:', '0,1,2,3,6,8'], ['CNF-SAT-VC-Time1:', '0.071015160'], ['APPROX-VC-1-Time2:', '0.000085337'], ['REFINED-APPROX-VC-1-Time3:', '0.000641173'], ['APPROX-VC-2-Time4:', '0.000135591'], ['REFINED-APPROX-VC-2-Time5:', '0.000276451']]

>>>>







CNF-SAT-VC: 0,1,2,4,5,6,9
APPROX-VC-1: 0,1,2,4,5,6,9
REFINED-APPROX-VC-1: 0,1,2,4,5,6,9
APPROX-VC-2: 0,1,2,3,4,5,6,7,8,10,11,12
REFINED-APPROX-VC-2: 0,1,2,3,4,5,6,7
CNF-SAT-VC-Time1: 0.701774823
APPROX-VC-1-Time2: 0.000108975
REFINED-APPROX-VC-1-Time3: 0.000671354
APPROX-VC-2-Time4: 0.000029400
REFINED-APPROX-VC-2-Time5: 0.000726864

13 - 2
['CNF-SAT-VC: 0,1,2,4,5,6,9', 'APPROX-VC-1: 0,1,2,4,5,6,9', 'REFINED-APPROX-VC-1: 0,1,2,4,5,6,9', 'APPROX-VC-2: 0,1,2,3,4,5,6,7,8,10,11,12', 'REFINED-APPROX-VC-2: 0,1,2,3,4,5,6,7', 'CNF-SAT-VC-Time1: 0.701774823', 'APPROX-VC-1-Time2: 0.000108975', 'REFINED-APPROX-VC-1-Time3: 0.000671354', 'APPROX-VC-2-Time4: 0.000029400', 'REFINED-APPROX-VC-2-Time5: 0.000726864']
[['CNF-SAT-VC:', '0,1,2,4,5,6,9'], ['APPROX-VC-1:', '0,1,2,4,5,6,9'], ['REFINED-APPROX-VC-1:', '0,1,2,4,5,6,9'], ['APPROX-VC-2:', '0,1,2,3,4,5,6,7,8,10,11,12'], ['REFINED-APPROX-VC-2:', '0,1,2,3,4,5,6,7'], ['CNF-SAT-VC-Time1:', '0.701774823'], ['APPROX-VC-1-Time2:', '0.000108975'], ['REFINED-APPROX-VC-1-Time3:', '0.000671354'], ['APPROX-VC-2-Time4:', '0.000029400'], ['REFINED-APPROX-VC-2-Time5:', '0.000726864']]

>>>>







CNF-SAT-VC: 0,1,3,5,6,8,9
APPROX-VC-1: 0,1,2,3,4,5,6,9
REFINED-APPROX-VC-1: 0,1,2,3,4,5,6,9
APPROX-VC-2: 0,1,2,3,4,5,6,8,9,10,11,12
REFINED-APPROX-VC-2: 0,1,2,3,4,5,6,9
CNF-SAT-VC-Time1: 0.422108738
APPROX-VC-1-Time2: 0.000017168
REFINED-APPROX-VC-1-Time3: 0.000231557
APPROX-VC-2-Time4: 0.000011351
REFINED-APPROX-VC-2-Time5: 0.000277985

13 - 3
['CNF-SAT-VC: 0,1,3,5,6,8,9', 'APPROX-VC-1: 0,1,2,3,4,5,6,9', 'REFINED-APPROX-VC-1: 0,1,2,3,4,5,6,9', 'APPROX-VC-2: 0,1,2,3,4,5,6,8,9,10,11,12', 'REFINED-APPROX-VC-2: 0,1,2,3,4,5,6,9', 'CNF-SAT-VC-Time1: 0.422108738', 'APPROX-VC-1-Time2: 0.000017168', 'REFINED-APPROX-VC-1-Time3: 0.000231557', 'APPROX-VC-2-Time4: 0.000011351', 'REFINED-APPROX-VC-2-Time5: 0.000277985']
[['CNF-SAT-VC:', '0,1,3,5,6,8,9'], ['APPROX-VC-1:', '0,1,2,3,4,5,6,9'], ['REFINED-APPROX-VC-1:', '0,1,2,3,4,5,6,9'], ['APPROX-VC-2:', '0,1,2,3,4,5,6,8,9,10,11,12'], ['REFINED-APPROX-VC-2:', '0,1,2,3,4,5,6,9'], ['CNF-SAT-VC-Time1:', '0.422108738'], ['APPROX-VC-1-Time2:', '0.000017168'], ['REFINED-APPROX-VC-1-Time3:', '0.000231557'], ['APPROX-VC-2-Time4:', '0.000011351'], ['REFINED-APPROX-VC-2-Time5:', '0.000277985']]

>>>>







CNF-SAT-VC: 0,1,2,3,4,7,9
APPROX-VC-1: 0,1,2,3,4,6,7,10
REFINED-APPROX-VC-1: 0,1,2,3,4,6,7,10
APPROX-VC-2: 1,2,3,4,5,7,8,9,10,12
REFINED-APPROX-VC-2: 1,2,3,4,7,8,9,10,12
CNF-SAT-VC-Time1: 0.502747493
APPROX-VC-1-Time2: 0.000034773
REFINED-APPROX-VC-1-Time3: 0.000261554
APPROX-VC-2-Time4: 0.000011981
REFINED-APPROX-VC-2-Time5: 0.000260925

13 - 4
['CNF-SAT-VC: 0,1,2,3,4,7,9', 'APPROX-VC-1: 0,1,2,3,4,6,7,10', 'REFINED-APPROX-VC-1: 0,1,2,3,4,6,7,10', 'APPROX-VC-2: 1,2,3,4,5,7,8,9,10,12', 'REFINED-APPROX-VC-2: 1,2,3,4,7,8,9,10,12', 'CNF-SAT-VC-Time1: 0.502747493', 'APPROX-VC-1-Time2: 0.000034773', 'REFINED-APPROX-VC-1-Time3: 0.000261554', 'APPROX-VC-2-Time4: 0.000011981', 'REFINED-APPROX-VC-2-Time5: 0.000260925']
[['CNF-SAT-VC:', '0,1,2,3,4,7,9'], ['APPROX-VC-1:', '0,1,2,3,4,6,7,10'], ['REFINED-APPROX-VC-1:', '0,1,2,3,4,6,7,10'], ['APPROX-VC-2:', '1,2,3,4,5,7,8,9,10,12'], ['REFINED-APPROX-VC-2:', '1,2,3,4,7,8,9,10,12'], ['CNF-SAT-VC-Time1:', '0.502747493'], ['APPROX-VC-1-Time2:', '0.000034773'], ['REFINED-APPROX-VC-1-Time3:', '0.000261554'], ['APPROX-VC-2-Time4:', '0.000011981'], ['REFINED-APPROX-VC-2-Time5:', '0.000260925']]

>>>>






CNF-SAT-VC: 0,1,4,5,8,10
APPROX-VC-1: 0,1,4,5,8,10
REFINED-APPROX-VC-1: 0,1,4,5,8,10
APPROX-VC-2: 0,1,3,4,5,6,8,9,10,11
REFINED-APPROX-VC-2: 0,1,3,4,5,6,8
CNF-SAT-VC-Time1: 0.080788279
APPROX-VC-1-Time2: 0.000034830
REFINED-APPROX-VC-1-Time3: 0.000229400
APPROX-VC-2-Time4: 0.000014359
REFINED-APPROX-VC-2-Time5: 0.000251179

13 - 5
['CNF-SAT-VC: 0,1,4,5,8,10', 'APPROX-VC-1: 0,1,4,5,8,10', 'REFINED-APPROX-VC-1: 0,1,4,5,8,10', 'APPROX-VC-2: 0,1,3,4,5,6,8,9,10,11', 'REFINED-APPROX-VC-2: 0,1,3,4,5,6,8', 'CNF-SAT-VC-Time1: 0.080788279', 'APPROX-VC-1-Time2: 0.000034830', 'REFINED-APPROX-VC-1-Time3: 0.000229400', 'APPROX-VC-2-Time4: 0.000014359', 'REFINED-APPROX-VC-2-Time5: 0.000251179']
[['CNF-SAT-VC:', '0,1,4,5,8,10'], ['APPROX-VC-1:', '0,1,4,5,8,10'], ['REFINED-APPROX-VC-1:', '0,1,4,5,8,10'], ['APPROX-VC-2:', '0,1,3,4,5,6,8,9,10,11'], ['REFINED-APPROX-VC-2:', '0,1,3,4,5,6,8'], ['CNF-SAT-VC-Time1:', '0.080788279'], ['APPROX-VC-1-Time2:', '0.000034830'], ['REFINED-APPROX-VC-1-Time3:', '0.000229400'], ['APPROX-VC-2-Time4:', '0.000014359'], ['REFINED-APPROX-VC-2-Time5:', '0.000251179']]

>>>>






CNF-SAT-VC: 0,3,4,5,7,11
APPROX-VC-1: 0,3,4,5,7,11
REFINED-APPROX-VC-1: 0,3,4,5,7,11
APPROX-VC-2: 0,1,2,3,4,5,7,8,9,10
REFINED-APPROX-VC-2: 0,1,2,4,5,7,9
CNF-SAT-VC-Time1: 0.060511869
APPROX-VC-1-Time2: 0.000030043
REFINED-APPROX-VC-1-Time3: 0.000232125
APPROX-VC-2-Time4: 0.000089653
REFINED-APPROX-VC-2-Time5: 0.000696731

13 - 6
['CNF-SAT-VC: 0,3,4,5,7,11', 'APPROX-VC-1: 0,3,4,5,7,11', 'REFINED-APPROX-VC-1: 0,3,4,5,7,11', 'APPROX-VC-2: 0,1,2,3,4,5,7,8,9,10', 'REFINED-APPROX-VC-2: 0,1,2,4,5,7,9', 'CNF-SAT-VC-Time1: 0.060511869', 'APPROX-VC-1-Time2: 0.000030043', 'REFINED-APPROX-VC-1-Time3: 0.000232125', 'APPROX-VC-2-Time4: 0.000089653', 'REFINED-APPROX-VC-2-Time5: 0.000696731']
[['CNF-SAT-VC:', '0,3,4,5,7,11'], ['APPROX-VC-1:', '0,3,4,5,7,11'], ['REFINED-APPROX-VC-1:', '0,3,4,5,7,11'], ['APPROX-VC-2:', '0,1,2,3,4,5,7,8,9,10'], ['REFINED-APPROX-VC-2:', '0,1,2,4,5,7,9'], ['CNF-SAT-VC-Time1:', '0.060511869'], ['APPROX-VC-1-Time2:', '0.000030043'], ['REFINED-APPROX-VC-1-Time3:', '0.000232125'], ['APPROX-VC-2-Time4:', '0.000089653'], ['REFINED-APPROX-VC-2-Time5:', '0.000696731']]

>>>>






Decision: 0/91	Time: 0.548916/86400
CNF-SAT-VC: 0,1,4,5,6,7,12
APPROX-VC-1: 0,1,3,4,5,6,12
REFINED-APPROX-VC-1: 0,1,3,4,5,6,12
APPROX-VC-2: 0,1,2,4,5,6,7,10,11,12
REFINED-APPROX-VC-2: 0,1,2,5,6,7,12
CNF-SAT-VC-Time1: 0.970748038
APPROX-VC-1-Time2: 0.000035346
REFINED-APPROX-VC-1-Time3: 0.000241811
APPROX-VC-2-Time4: 0.000025004
REFINED-APPROX-VC-2-Time5: 0.000255773

13 - 7
['Decision: 0/91\tTime: 0.548916/86400', 'CNF-SAT-VC: 0,1,4,5,6,7,12', 'APPROX-VC-1: 0,1,3,4,5,6,12', 'REFINED-APPROX-VC-1: 0,1,3,4,5,6,12', 'APPROX-VC-2: 0,1,2,4,5,6,7,10,11,12', 'REFINED-APPROX-VC-2: 0,1,2,5,6,7,12', 'CNF-SAT-VC-Time1: 0.970748038', 'APPROX-VC-1-Time2: 0.000035346', 'REFINED-APPROX-VC-1-Time3: 0.000241811', 'APPROX-VC-2-Time4: 0.000025004', 'REFINED-APPROX-VC-2-Time5: 0.000255773']
[['CNF-SAT-VC:', '0,1,4,5,6,7,12'], ['APPROX-VC-1:', '0,1,3,4,5,6,12'], ['REFINED-APPROX-VC-1:', '0,1,3,4,5,6,12'], ['APPROX-VC-2:', '0,1,2,4,5,6,7,10,11,12'], ['REFINED-APPROX-VC-2:', '0,1,2,5,6,7,12'], ['CNF-SAT-VC-Time1:', '0.970748038'], ['APPROX-VC-1-Time2:', '0.000035346'], ['REFINED-APPROX-VC-1-Time3:', '0.000241811'], ['APPROX-VC-2-Time4:', '0.000025004'], ['REFINED-APPROX-VC-2-Time5:', '0.000255773']]

>>>>






CNF-SAT-VC: 0,1,3,5,6,10
APPROX-VC-1: 0,1,3,5,6,10
REFINED-APPROX-VC-1: 0,1,3,5,6,10
APPROX-VC-2: 0,1,2,3,4,5,6,9,10,11
REFINED-APPROX-VC-2: 0,1,3,5,6,10
CNF-SAT-VC-Time1: 0.076850755
APPROX-VC-1-Time2: 0.000044508
REFINED-APPROX-VC-1-Time3: 0.000218949
APPROX-VC-2-Time4: 0.000019920
REFINED-APPROX-VC-2-Time5: 0.000283148

13 - 8
['CNF-SAT-VC: 0,1,3,5,6,10', 'APPROX-VC-1: 0,1,3,5,6,10', 'REFINED-APPROX-VC-1: 0,1,3,5,6,10', 'APPROX-VC-2: 0,1,2,3,4,5,6,9,10,11', 'REFINED-APPROX-VC-2: 0,1,3,5,6,10', 'CNF-SAT-VC-Time1: 0.076850755', 'APPROX-VC-1-Time2: 0.000044508', 'REFINED-APPROX-VC-1-Time3: 0.000218949', 'APPROX-VC-2-Time4: 0.000019920', 'REFINED-APPROX-VC-2-Time5: 0.000283148']
[['CNF-SAT-VC:', '0,1,3,5,6,10'], ['APPROX-VC-1:', '0,1,3,5,6,10'], ['REFINED-APPROX-VC-1:', '0,1,3,5,6,10'], ['APPROX-VC-2:', '0,1,2,3,4,5,6,9,10,11'], ['REFINED-APPROX-VC-2:', '0,1,3,5,6,10'], ['CNF-SAT-VC-Time1:', '0.076850755'], ['APPROX-VC-1-Time2:', '0.000044508'], ['REFINED-APPROX-VC-1-Time3:', '0.000218949'], ['APPROX-VC-2-Time4:', '0.000019920'], ['REFINED-APPROX-VC-2-Time5:', '0.000283148']]

>>>>







CNF-SAT-VC: 0,1,2,3,4,5,6
APPROX-VC-1: 0,1,2,3,4,5,6
REFINED-APPROX-VC-1: 0,1,2,3,4,5,6
APPROX-VC-2: 0,1,2,3,4,5,6,8,9,10,11,12
REFINED-APPROX-VC-2: 0,1,2,3,4,5,6
CNF-SAT-VC-Time1: 0.650213396
APPROX-VC-1-Time2: 0.000046262
REFINED-APPROX-VC-1-Time3: 0.000224050
APPROX-VC-2-Time4: 0.000028125
REFINED-APPROX-VC-2-Time5: 0.000277463

13 - 9
['CNF-SAT-VC: 0,1,2,3,4,5,6', 'APPROX-VC-1: 0,1,2,3,4,5,6', 'REFINED-APPROX-VC-1: 0,1,2,3,4,5,6', 'APPROX-VC-2: 0,1,2,3,4,5,6,8,9,10,11,12', 'REFINED-APPROX-VC-2: 0,1,2,3,4,5,6', 'CNF-SAT-VC-Time1: 0.650213396', 'APPROX-VC-1-Time2: 0.000046262', 'REFINED-APPROX-VC-1-Time3: 0.000224050', 'APPROX-VC-2-Time4: 0.000028125', 'REFINED-APPROX-VC-2-Time5: 0.000277463']
[['CNF-SAT-VC:', '0,1,2,3,4,5,6'], ['APPROX-VC-1:', '0,1,2,3,4,5,6'], ['REFINED-APPROX-VC-1:', '0,1,2,3,4,5,6'], ['APPROX-VC-2:', '0,1,2,3,4,5,6,8,9,10,11,12'], ['REFINED-APPROX-VC-2:', '0,1,2,3,4,5,6'], ['CNF-SAT-VC-Time1:', '0.650213396'], ['APPROX-VC-1-Time2:', '0.000046262'], ['REFINED-APPROX-VC-1-Time3:', '0.000224050'], ['APPROX-VC-2-Time4:', '0.000028125'], ['REFINED-APPROX-VC-2-Time5:', '0.000277463']]

>>>>






Decision: 0/98	Time: 0.651901/86400Decision: 0/98	Time: 0.673897/86400Decision: 0/98	Time: 0.710892/86400Decision: 0/98	Time: 0.753885/86400Decision: 0/98	Time: 0.808877/86400Decision: 0/98	Time: 0.865868/86400Decision: 0/98	Time: 0.927859/86400Decision: 0/98	Time: 0.98285/86400Decision: 0/98	Time: 1.05184/86400Decision: 0/98	Time: 1.11683/86400Decision: 0/98	Time: 1.18282/86400Decision: 0/98	Time: 1.25081/86400Decision: 0/98	Time: 1.3268/86400Decision: 0/98	Time: 1.40279/86400Decision: 0/98	Time: 1.50977/86400Decision: 0/98	Time: 1.60776/86400Decision: 0/98	Time: 1.70874/86400Decision: 0/98	Time: 1.81272/86400Decision: 0/98	Time: 1.91871/86400Decision: 0/98	Time: 2.02269/86400Decision: 0/98	Time: 2.13567/86400Decision: 0/98	Time: 2.25166/86400Decision: 0/98	Time: 2.36964/86400Decision: 0/98	Time: 2.48662/86400Decision: 0/98	Time: 2.6006/86400Decision: 0/98	Time: 2.76158/86400Decision: 0/98	Time: 2.90356/86400Decision: 3/98	Time: 3.32049/86400

CNF-SAT-VC: 0,1,2,3,4,5,6,7
APPROX-VC-1: 0,1,2,3,4,5,7,10,13
REFINED-APPROX-VC-1: 0,1,2,3,4,5,7,13
APPROX-VC-2: 0,1,2,3,4,5,7,8,9,10,11,13
REFINED-APPROX-VC-2: 0,1,2,3,4,5,7,13
CNF-SAT-VC-Time1: 5.618409470
APPROX-VC-1-Time2: 0.000021391
REFINED-APPROX-VC-1-Time3: 0.000268228
APPROX-VC-2-Time4: 0.000036940
REFINED-APPROX-VC-2-Time5: 0.000289103

14 - 0
['Decision: 0/98\tTime: 0.651901/86400\rDecision: 0/98\tTime: 0.673897/86400\rDecision: 0/98\tTime: 0.710892/86400\rDecision: 0/98\tTime: 0.753885/86400\rDecision: 0/98\tTime: 0.808877/86400\rDecision: 0/98\tTime: 0.865868/86400\rDecision: 0/98\tTime: 0.927859/86400\rDecision: 0/98\tTime: 0.98285/86400\rDecision: 0/98\tTime: 1.05184/86400\rDecision: 0/98\tTime: 1.11683/86400\rDecision: 0/98\tTime: 1.18282/86400\rDecision: 0/98\tTime: 1.25081/86400\rDecision: 0/98\tTime: 1.3268/86400\rDecision: 0/98\tTime: 1.40279/86400\rDecision: 0/98\tTime: 1.50977/86400\rDecision: 0/98\tTime: 1.60776/86400\rDecision: 0/98\tTime: 1.70874/86400\rDecision: 0/98\tTime: 1.81272/86400\rDecision: 0/98\tTime: 1.91871/86400\rDecision: 0/98\tTime: 2.02269/86400\rDecision: 0/98\tTime: 2.13567/86400\rDecision: 0/98\tTime: 2.25166/86400\rDecision: 0/98\tTime: 2.36964/86400\rDecision: 0/98\tTime: 2.48662/86400\rDecision: 0/98\tTime: 2.6006/86400\rDecision: 0/98\tTime: 2.76158/86400\rDecision: 0/98\tTime: 2.90356/86400\rDecision: 3/98\tTime: 3.32049/86400', '', 'CNF-SAT-VC: 0,1,2,3,4,5,6,7', 'APPROX-VC-1: 0,1,2,3,4,5,7,10,13', 'REFINED-APPROX-VC-1: 0,1,2,3,4,5,7,13', 'APPROX-VC-2: 0,1,2,3,4,5,7,8,9,10,11,13', 'REFINED-APPROX-VC-2: 0,1,2,3,4,5,7,13', 'CNF-SAT-VC-Time1: 5.618409470', 'APPROX-VC-1-Time2: 0.000021391', 'REFINED-APPROX-VC-1-Time3: 0.000268228', 'APPROX-VC-2-Time4: 0.000036940', 'REFINED-APPROX-VC-2-Time5: 0.000289103']
[['CNF-SAT-VC:', '0,1,2,3,4,5,6,7'], ['APPROX-VC-1:', '0,1,2,3,4,5,7,10,13'], ['REFINED-APPROX-VC-1:', '0,1,2,3,4,5,7,13'], ['APPROX-VC-2:', '0,1,2,3,4,5,7,8,9,10,11,13'], ['REFINED-APPROX-VC-2:', '0,1,2,3,4,5,7,13'], ['CNF-SAT-VC-Time1:', '5.618409470'], ['APPROX-VC-1-Time2:', '0.000021391'], ['REFINED-APPROX-VC-1-Time3:', '0.000268228'], ['APPROX-VC-2-Time4:', '0.000036940'], ['REFINED-APPROX-VC-2-Time5:', '0.000289103']]

>>>>






Decision: 0/98	Time: 0.540918/86400Decision: 0/98	Time: 0.573912/86400Decision: 0/98	Time: 0.611907/86400Decision: 0/98	Time: 0.660899/86400Decision: 0/98	Time: 0.71789/86400Decision: 0/98	Time: 0.773882/86400Decision: 0/98	Time: 0.850871/86400Decision: 0/98	Time: 0.935857/86400Decision: 0/98	Time: 1.00185/86400Decision: 0/98	Time: 1.06984/86400Decision: 0/98	Time: 1.14683/86400Decision: 0/98	Time: 1.22881/86400Decision: 0/98	Time: 1.3188/86400Decision: 0/98	Time: 1.41478/86400Decision: 0/98	Time: 1.50877/86400Decision: 0/98	Time: 1.60676/86400Decision: 0/98	Time: 1.70774/86400Decision: 1/98	Time: 1.93371/86400

CNF-SAT-VC: 0,1,2,3,4,5,6,8
APPROX-VC-1: 0,1,2,3,4,5,6,8
REFINED-APPROX-VC-1: 0,1,2,3,4,5,6,8
APPROX-VC-2: 0,2,3,4,5,6,8,9,10,11,12,13
REFINED-APPROX-VC-2: 0,2,3,4,5,6,8,11,13
CNF-SAT-VC-Time1: 3.502807971
APPROX-VC-1-Time2: 0.000044723
REFINED-APPROX-VC-1-Time3: 0.000245725
APPROX-VC-2-Time4: 0.000012200
REFINED-APPROX-VC-2-Time5: 0.000300293

14 - 1
['Decision: 0/98\tTime: 0.540918/86400\rDecision: 0/98\tTime: 0.573912/86400\rDecision: 0/98\tTime: 0.611907/86400\rDecision: 0/98\tTime: 0.660899/86400\rDecision: 0/98\tTime: 0.71789/86400\rDecision: 0/98\tTime: 0.773882/86400\rDecision: 0/98\tTime: 0.850871/86400\rDecision: 0/98\tTime: 0.935857/86400\rDecision: 0/98\tTime: 1.00185/86400\rDecision: 0/98\tTime: 1.06984/86400\rDecision: 0/98\tTime: 1.14683/86400\rDecision: 0/98\tTime: 1.22881/86400\rDecision: 0/98\tTime: 1.3188/86400\rDecision: 0/98\tTime: 1.41478/86400\rDecision: 0/98\tTime: 1.50877/86400\rDecision: 0/98\tTime: 1.60676/86400\rDecision: 0/98\tTime: 1.70774/86400\rDecision: 1/98\tTime: 1.93371/86400', '', 'CNF-SAT-VC: 0,1,2,3,4,5,6,8', 'APPROX-VC-1: 0,1,2,3,4,5,6,8', 'REFINED-APPROX-VC-1: 0,1,2,3,4,5,6,8', 'APPROX-VC-2: 0,2,3,4,5,6,8,9,10,11,12,13', 'REFINED-APPROX-VC-2: 0,2,3,4,5,6,8,11,13', 'CNF-SAT-VC-Time1: 3.502807971', 'APPROX-VC-1-Time2: 0.000044723', 'REFINED-APPROX-VC-1-Time3: 0.000245725', 'APPROX-VC-2-Time4: 0.000012200', 'REFINED-APPROX-VC-2-Time5: 0.000300293']
[['CNF-SAT-VC:', '0,1,2,3,4,5,6,8'], ['APPROX-VC-1:', '0,1,2,3,4,5,6,8'], ['REFINED-APPROX-VC-1:', '0,1,2,3,4,5,6,8'], ['APPROX-VC-2:', '0,2,3,4,5,6,8,9,10,11,12,13'], ['REFINED-APPROX-VC-2:', '0,2,3,4,5,6,8,11,13'], ['CNF-SAT-VC-Time1:', '3.502807971'], ['APPROX-VC-1-Time2:', '0.000044723'], ['REFINED-APPROX-VC-1-Time3:', '0.000245725'], ['APPROX-VC-2-Time4:', '0.000012200'], ['REFINED-APPROX-VC-2-Time5:', '0.000300293']]

>>>>







14 - 2
['']
[]

