\relax 
\@writefile{lof}{\contentsline {figure}{\numberline {1}{\ignorespaces Approxiamtion Ratio Mean}}{2}}
\newlabel{fig:ApproxMean}{{1}{2}}
\@writefile{lof}{\contentsline {figure}{\numberline {2}{\ignorespaces Approxiamtion Ratio Standard Deviation}}{3}}
\newlabel{fig:ApproxStd}{{2}{3}}
\@writefile{lof}{\contentsline {figure}{\numberline {3}{\ignorespaces Runtime Mean}}{4}}
\newlabel{fig:TimeMean}{{3}{4}}
\@writefile{lof}{\contentsline {figure}{\numberline {4}{\ignorespaces Runtime Standard Deviation}}{5}}
\newlabel{fig:TimeStd}{{4}{5}}
